# chain:residue	all-atom	all-atom(stdev)	MC-atom	MC-atom(stdev)	SC-atom	SC-atom(stdev)	SC-polar-atom	SC-polar-atom(stdev)	SC-nonpolar-atom	SC-nonpolar-atom(stdev)
L:1	ASP	  3.50	  0.29	  3.51	  0.37	  3.48	  0.19	  3.50	  0.18	  3.47	  0.20
L:2	ILE	  5.08	  0.65	  4.49	  0.17	  5.67	  0.37	   nan	   nan	  5.67	  0.37
L:3	GLN	  3.80	  0.57	  4.38	  0.22	  3.34	  0.27	  3.00	  0.00	  3.56	  0.04
L:4	MET	  5.60	  1.34	  4.50	  0.45	  6.69	  1.01	  7.08	  0.00	  6.55	  1.13
L:5	THR	  4.17	  0.74	  4.78	  0.22	  3.36	  0.23	  3.23	  0.00	  3.42	  0.26
L:6	GLN	  6.23	  1.40	  4.82	  0.68	  7.35	  0.55	  7.56	  0.46	  7.22	  0.56
L:7	SER	  3.99	  0.61	  4.38	  0.31	  3.21	  0.04	  3.25	  0.00	  3.16	  0.00
L:8	PRO	  3.93	  0.59	  4.27	  0.58	  3.48	  0.10	   nan	   nan	  3.48	  0.10
L:9	SER	  3.58	  0.42	  3.85	  0.23	  3.05	  0.04	  3.01	  0.00	  3.10	  0.00
L:10	SER	  3.70	  0.48	  3.94	  0.39	  3.22	  0.21	  3.01	  0.00	  3.42	  0.00
L:11	LEU	  3.94	  0.31	  3.97	  0.32	  3.92	  0.30	   nan	   nan	  3.92	  0.30
L:12	SER	  3.60	  0.39	  3.77	  0.35	  3.25	  0.16	  3.41	  0.00	  3.09	  0.00
L:13	ALA	  5.18	  0.71	  5.42	  0.58	  4.21	  0.00	   nan	   nan	  4.21	  0.00
L:14	SER	  4.36	  0.73	  4.84	  0.30	  3.39	  0.14	  3.25	  0.00	  3.53	  0.00
L:15	VAL	  3.58	  0.41	  3.80	  0.42	  3.29	  0.10	   nan	   nan	  3.29	  0.10
L:16	GLY	  3.61	  0.35	  3.61	  0.35	   nan	   nan	   nan	   nan	   nan	   nan
L:17	ASP	  3.98	  0.67	  4.50	  0.50	  3.46	  0.31	  3.20	  0.00	  3.72	  0.24
L:18	ARG	  3.62	  0.42	  3.95	  0.40	  3.42	  0.29	  3.23	  0.25	  3.57	  0.23
L:19	VAL	  4.96	  0.37	  5.02	  0.47	  4.89	  0.12	   nan	   nan	  4.89	  0.12
L:20	THR	  3.79	  0.48	  4.05	  0.41	  3.44	  0.34	  2.97	  0.00	  3.68	  0.06
L:21	ILE	  6.30	  0.84	  5.56	  0.18	  7.05	  0.50	   nan	   nan	  7.05	  0.50
L:22	THR	  4.71	  1.06	  5.56	  0.45	  3.58	  0.32	  3.24	  0.00	  3.75	  0.25
L:23	CYS	  6.20	  1.05	  5.50	  0.35	  7.59	  0.37	  7.96	  0.00	  7.22	  0.00
L:24	SER	  4.29	  0.75	  4.81	  0.21	  3.27	  0.17	  3.10	  0.00	  3.44	  0.00
L:25	ALA	  4.90	  0.94	  4.53	  0.66	  6.37	  0.00	   nan	   nan	  6.37	  0.00
L:26	SER	  3.52	  0.36	  3.59	  0.40	  3.38	  0.18	  3.57	  0.00	  3.20	  0.00
L:27	GLN	  3.89	  0.59	  4.33	  0.52	  3.54	  0.36	  3.24	  0.00	  3.74	  0.33
L:28	ASP	  3.67	  0.42	  3.93	  0.35	  3.42	  0.32	  3.42	  0.43	  3.41	  0.12
L:29	ILE	  6.18	  1.21	  5.15	  0.11	  7.21	  0.89	   nan	   nan	  7.21	  0.89
L:30	SER	  4.02	  0.63	  4.42	  0.34	  3.24	  0.17	  3.07	  0.00	  3.40	  0.00
L:31	ASN	  4.36	  1.00	  5.14	  0.76	  3.58	  0.44	  3.36	  0.49	  3.80	  0.24
L:32	TYR	  5.14	  1.64	  7.08	  0.87	  4.18	  0.91	  2.95	  0.00	  4.35	  0.84
L:33	LEU	  9.81	  0.76	  9.28	  0.62	 10.33	  0.48	   nan	   nan	 10.33	  0.48
L:34	ASN	 11.93	  0.86	 12.47	  0.06	 11.40	  0.95	 10.86	  1.09	 11.94	  0.04
L:35	TRP	 10.51	  1.15	 11.54	  0.86	 10.10	  0.98	  9.21	  0.00	 10.20	  0.99
L:36	TYR	  9.69	  1.18	 10.21	  1.20	  9.43	  1.07	 10.40	  0.00	  9.29	  1.08
L:37	GLN	  6.41	  0.92	  6.87	  0.87	  6.03	  0.77	  5.33	  0.48	  6.50	  0.55
L:38	GLN	  5.32	  0.91	  6.05	  0.74	  4.72	  0.53	  4.33	  0.12	  4.99	  0.54
L:39	LYS	  4.44	  0.63	  4.94	  0.43	  4.04	  0.47	  3.28	  0.00	  4.23	  0.30
L:40	PRO	  3.69	  0.27	  3.70	  0.29	  3.67	  0.24	   nan	   nan	  3.67	  0.24
L:41	GLY	  3.20	  0.23	  3.20	  0.23	   nan	   nan	   nan	   nan	   nan	   nan
L:42	LYS	  3.81	  0.56	  4.34	  0.30	  3.39	  0.30	  3.00	  0.00	  3.49	  0.25
L:43	ALA	  3.93	  0.28	  3.99	  0.29	  3.72	  0.00	   nan	   nan	  3.72	  0.00
L:44	PRO	  5.59	  1.15	  4.72	  0.65	  6.75	  0.41	   nan	   nan	  6.75	  0.41
L:45	LYS	  4.08	  0.92	  4.97	  0.66	  3.37	  0.15	  3.18	  0.00	  3.41	  0.12
L:46	VAL	  5.68	  0.80	  5.33	  0.44	  6.15	  0.91	   nan	   nan	  6.15	  0.91
L:47	LEU	  7.52	  0.70	  7.26	  0.30	  7.78	  0.87	   nan	   nan	  7.78	  0.87
L:48	ILE	  8.02	  1.12	  8.94	  0.82	  7.10	  0.40	   nan	   nan	  7.10	  0.40
L:49	TYR	  5.85	  1.50	  7.16	  0.79	  5.20	  1.32	  3.16	  0.00	  5.49	  1.15
L:50	PHE	  4.68	  1.21	  5.85	  0.95	  4.02	  0.75	   nan	   nan	  4.02	  0.75
L:51	THR	  5.76	  0.61	  6.17	  0.23	  5.22	  0.53	  5.87	  0.00	  4.90	  0.32
L:52	SER	  3.99	  0.70	  4.27	  0.69	  3.43	  0.25	  3.18	  0.00	  3.67	  0.00
L:53	SER	  4.01	  0.75	  4.40	  0.60	  3.24	  0.22	  3.02	  0.00	  3.46	  0.00
L:54	LEU	  3.97	  0.54	  3.88	  0.38	  4.05	  0.66	   nan	   nan	  4.05	  0.66
L:55	HIS	  4.40	  0.56	  4.57	  0.39	  4.29	  0.63	  3.86	  0.04	  4.51	  0.68
L:56	SER	  3.49	  0.33	  3.70	  0.15	  3.05	  0.03	  3.09	  0.00	  3.02	  0.00
L:57	GLY	  3.41	  0.21	  3.41	  0.21	   nan	   nan	   nan	   nan	   nan	   nan
L:58	VAL	  4.59	  0.83	  3.99	  0.44	  5.40	  0.47	   nan	   nan	  5.40	  0.47
L:59	PRO	  4.01	  0.58	  4.31	  0.59	  3.61	  0.20	   nan	   nan	  3.61	  0.20
L:60	SER	  3.46	  0.39	  3.68	  0.30	  3.03	  0.01	  3.02	  0.00	  3.05	  0.00
L:61	ARG	  4.11	  0.49	  4.34	  0.52	  3.97	  0.42	  3.98	  0.59	  3.97	  0.22
L:62	PHE	  6.33	  1.23	  5.05	  0.65	  7.06	  0.82	   nan	   nan	  7.06	  0.82
L:63	SER	  4.21	  0.76	  4.69	  0.43	  3.25	  0.01	  3.24	  0.00	  3.27	  0.00
L:64	GLY	  4.32	  0.50	  4.32	  0.50	   nan	   nan	   nan	   nan	   nan	   nan
L:65	SER	  4.06	  0.69	  4.51	  0.34	  3.16	  0.10	  3.07	  0.00	  3.26	  0.00
L:66	GLY	  3.61	  0.16	  3.61	  0.16	   nan	   nan	   nan	   nan	   nan	   nan
L:67	SER	  3.70	  0.43	  3.93	  0.31	  3.24	  0.19	  3.05	  0.00	  3.43	  0.00
L:68	GLY	  4.32	  0.55	  4.32	  0.55	   nan	   nan	   nan	   nan	   nan	   nan
L:69	THR	  4.23	  0.74	  4.79	  0.44	  3.48	  0.25	  3.19	  0.00	  3.63	  0.17
L:70	ASP	  3.78	  0.52	  4.23	  0.36	  3.32	  0.11	  3.23	  0.04	  3.42	  0.05
L:71	PHE	  6.00	  1.05	  4.64	  0.17	  6.77	  0.26	   nan	   nan	  6.77	  0.26
L:72	THR	  4.61	  0.94	  5.36	  0.36	  3.60	  0.34	  3.12	  0.00	  3.84	  0.00
L:73	LEU	  7.79	  1.44	  6.48	  0.28	  9.11	  0.80	   nan	   nan	  9.11	  0.80
L:74	THR	  4.91	  0.99	  5.75	  0.19	  3.80	  0.18	  3.64	  0.00	  3.88	  0.18
L:75	ILE	  7.30	  1.17	  6.29	  0.35	  8.31	  0.75	   nan	   nan	  8.31	  0.75
L:76	SER	  3.83	  0.66	  4.14	  0.61	  3.21	  0.04	  3.17	  0.00	  3.25	  0.00
L:77	SER	  4.21	  0.64	  4.64	  0.27	  3.35	  0.01	  3.34	  0.00	  3.37	  0.00
L:78	LEU	  6.98	  1.08	  6.03	  0.54	  7.93	  0.48	   nan	   nan	  7.93	  0.48
L:79	GLN	  4.66	  1.25	  5.93	  0.49	  3.65	  0.58	  3.14	  0.19	  3.99	  0.49
L:80	PRO	  4.74	  0.99	  5.49	  0.56	  3.74	  0.31	   nan	   nan	  3.74	  0.31
L:81	GLU	  4.07	  0.75	  4.87	  0.25	  3.42	  0.19	  3.24	  0.17	  3.55	  0.03
L:82	ASP	  6.90	  1.00	  7.34	  0.99	  6.46	  0.78	  5.91	  0.57	  7.01	  0.55
L:83	PHE	  6.17	  0.73	  6.66	  0.58	  5.89	  0.66	   nan	   nan	  5.89	  0.66
L:84	ALA	  6.54	  0.35	  6.45	  0.33	  6.90	  0.00	   nan	   nan	  6.90	  0.00
L:85	THR	  5.33	  1.33	  6.34	  0.79	  3.99	  0.35	  3.50	  0.00	  4.24	  0.07
L:86	TYR	  9.15	  1.06	  7.85	  0.46	  9.81	  0.55	  8.79	  0.00	  9.95	  0.42
L:87	TYR	  7.33	  2.05	  9.73	  0.89	  6.13	  1.26	  4.14	  0.00	  6.42	  1.08
L:88	CYS	  8.96	  0.88	  8.94	  0.93	  8.99	  0.78	  8.21	  0.00	  9.78	  0.00
L:89	GLN	 10.21	  0.99	  9.69	  0.67	 10.63	  1.01	 11.57	  0.58	 10.01	  0.70
L:90	GLN	  8.52	  0.93	  9.33	  0.21	  7.87	  0.75	  7.14	  0.05	  8.35	  0.59
L:91	TYR	  7.37	  0.98	  7.01	  1.16	  7.54	  0.81	  6.74	  0.00	  7.66	  0.81
L:92	SER	  4.41	  0.84	  4.57	  0.89	  4.07	  0.60	  3.47	  0.00	  4.67	  0.00
L:93	THR	  4.01	  0.69	  4.48	  0.51	  3.38	  0.25	  3.73	  0.00	  3.21	  0.08
L:94	VAL	  3.99	  0.54	  3.94	  0.45	  4.07	  0.64	   nan	   nan	  4.07	  0.64
L:95	PRO	  5.06	  0.76	  5.44	  0.73	  4.56	  0.45	   nan	   nan	  4.56	  0.45
L:96	TRP	  7.69	  1.34	  6.35	  0.76	  8.22	  1.13	  9.95	  0.00	  8.03	  1.03
L:97	THR	  5.03	  0.87	  5.54	  0.68	  4.34	  0.56	  5.12	  0.00	  3.95	  0.15
L:98	PHE	  5.78	  1.38	  4.37	  0.57	  6.58	  1.01	   nan	   nan	  6.58	  1.01
L:99	GLY	  4.69	  0.33	  4.69	  0.33	   nan	   nan	   nan	   nan	   nan	   nan
L:100	GLN	  3.77	  0.40	  3.98	  0.35	  3.60	  0.36	  3.93	  0.16	  3.38	  0.28
L:101	GLY	  4.77	  0.38	  4.77	  0.38	   nan	   nan	   nan	   nan	   nan	   nan
L:102	THR	  6.09	  0.69	  5.53	  0.33	  6.83	  0.09	  6.96	  0.00	  6.77	  0.00
L:103	LYS	  4.27	  0.85	  5.14	  0.36	  3.57	  0.32	  3.25	  0.00	  3.64	  0.31
L:104	VAL	  7.47	  0.54	  7.07	  0.31	  8.01	  0.20	   nan	   nan	  8.01	  0.20
L:105	GLU	  4.85	  0.92	  5.83	  0.17	  4.07	  0.36	  3.82	  0.42	  4.24	  0.17
L:106	ILE	  6.26	  0.69	  6.19	  0.29	  6.32	  0.93	   nan	   nan	  6.32	  0.93
L:107	LYS	  4.02	  0.89	  4.70	  0.77	  3.48	  0.54	  2.96	  0.00	  3.61	  0.52
L:108	ARG	  3.80	  0.47	  3.77	  0.35	  3.82	  0.53	  3.51	  0.44	  4.05	  0.48
L:109	THR	  3.72	  0.62	  4.12	  0.53	  3.19	  0.19	  3.16	  0.00	  3.20	  0.23
L:110	VAL	  3.69	  0.31	  3.83	  0.34	  3.49	  0.08	   nan	   nan	  3.49	  0.08
L:111	ALA	  4.36	  0.53	  4.49	  0.51	  3.83	  0.00	   nan	   nan	  3.83	  0.00
L:112	ALA	  3.90	  0.38	  4.01	  0.34	  3.45	  0.00	   nan	   nan	  3.45	  0.00
L:113	PRO	  5.39	  0.97	  4.70	  0.69	  6.33	  0.17	   nan	   nan	  6.33	  0.17
L:114	SER	  4.14	  0.79	  4.57	  0.58	  3.28	  0.29	  2.99	  0.00	  3.57	  0.00
L:115	VAL	  4.89	  0.77	  4.41	  0.46	  5.53	  0.61	   nan	   nan	  5.53	  0.61
L:116	PHE	  4.87	  0.92	  5.72	  0.78	  4.38	  0.57	   nan	   nan	  4.38	  0.57
L:117	ILE	  5.11	  0.86	  4.75	  0.50	  5.48	  0.97	   nan	   nan	  5.48	  0.97
L:118	PHE	  6.24	  0.76	  5.76	  0.56	  6.51	  0.72	   nan	   nan	  6.51	  0.72
L:119	PRO	  4.63	  0.81	  5.30	  0.26	  3.75	  0.27	   nan	   nan	  3.75	  0.27
L:120	PRO	  6.02	  0.70	  5.63	  0.66	  6.55	  0.26	   nan	   nan	  6.55	  0.26
L:121	SER	  5.03	  0.42	  5.14	  0.44	  4.82	  0.28	  5.09	  0.00	  4.54	  0.00
L:122	ASP	  3.60	  0.38	  3.95	  0.13	  3.24	  0.13	  3.12	  0.02	  3.37	  0.05
L:123	GLU	  3.72	  0.41	  4.07	  0.33	  3.45	  0.21	  3.39	  0.28	  3.49	  0.14
L:124	GLN	  6.12	  0.67	  5.63	  0.19	  6.51	  0.65	  6.75	  0.94	  6.35	  0.24
L:125	LEU	  5.01	  0.61	  5.15	  0.46	  4.88	  0.70	   nan	   nan	  4.88	  0.70
L:126	LYS	  3.47	  0.40	  3.71	  0.45	  3.28	  0.19	  2.94	  0.00	  3.36	  0.10
L:127	SER	  3.48	  0.30	  3.49	  0.33	  3.45	  0.22	  3.67	  0.00	  3.23	  0.00
L:128	GLY	  3.65	  0.28	  3.65	  0.28	   nan	   nan	   nan	   nan	   nan	   nan
L:129	THR	  4.68	  1.18	  5.53	  0.81	  3.55	  0.36	  3.49	  0.00	  3.58	  0.44
L:130	ALA	  7.21	  0.61	  7.00	  0.49	  8.04	  0.00	   nan	   nan	  8.04	  0.00
L:131	SER	  8.57	  1.01	  9.11	  0.54	  7.49	  0.85	  6.64	  0.00	  8.34	  0.00
L:132	VAL	  9.65	  0.44	  9.91	  0.28	  9.31	  0.36	   nan	   nan	  9.31	  0.36
L:133	VAL	  9.97	  0.99	  9.31	  0.78	 10.85	  0.38	   nan	   nan	 10.85	  0.38
L:134	CYS	  9.88	  0.39	 10.08	  0.33	  9.49	  0.11	  9.38	  0.00	  9.61	  0.00
L:135	LEU	  9.03	  0.58	  9.11	  0.69	  8.95	  0.42	   nan	   nan	  8.95	  0.42
L:136	LEU	  8.98	  0.55	  9.04	  0.49	  8.91	  0.60	   nan	   nan	  8.91	  0.60
L:137	ASN	  5.65	  0.84	  5.99	  0.86	  5.31	  0.66	  5.11	  0.87	  5.51	  0.18
L:138	ASN	  4.36	  0.72	  4.86	  0.59	  3.85	  0.43	  3.79	  0.60	  3.91	  0.05
L:139	PHE	  7.23	  0.72	  6.70	  0.58	  7.53	  0.61	   nan	   nan	  7.53	  0.61
L:140	TYR	  5.62	  1.15	  6.67	  0.44	  5.10	  1.04	  3.67	  0.00	  5.30	  0.95
L:141	PRO	  4.90	  0.84	  5.50	  0.49	  4.09	  0.42	   nan	   nan	  4.09	  0.42
L:142	ARG	  4.12	  0.78	  4.87	  0.55	  3.70	  0.54	  3.35	  0.24	  3.97	  0.55
L:143	GLU	  3.62	  0.46	  4.04	  0.36	  3.28	  0.15	  3.20	  0.01	  3.34	  0.17
L:144	ALA	  3.92	  0.66	  3.62	  0.33	  5.09	  0.00	   nan	   nan	  5.09	  0.00
L:145	LYS	  3.81	  0.78	  4.50	  0.70	  3.26	  0.15	  3.01	  0.00	  3.32	  0.09
L:146	VAL	  4.87	  0.95	  4.16	  0.55	  5.82	  0.35	   nan	   nan	  5.82	  0.35
L:147	GLN	  4.66	  0.73	  5.22	  0.69	  4.21	  0.36	  3.93	  0.45	  4.39	  0.04
L:148	TRP	  7.22	  1.46	  6.00	  0.51	  7.71	  1.42	  6.44	  0.00	  7.85	  1.43
L:149	LYS	  5.14	  1.28	  6.47	  0.15	  4.07	  0.63	  3.21	  0.00	  4.28	  0.51
L:150	VAL	  5.19	  0.58	  5.28	  0.71	  5.08	  0.32	   nan	   nan	  5.08	  0.32
L:151	ASP	  3.80	  0.57	  4.14	  0.62	  3.47	  0.18	  3.31	  0.07	  3.63	  0.10
L:152	ASN	  3.71	  0.50	  4.13	  0.35	  3.29	  0.15	  3.14	  0.01	  3.44	  0.04
L:153	ALA	  4.07	  0.61	  4.30	  0.43	  3.12	  0.00	   nan	   nan	  3.12	  0.00
L:154	LEU	  3.72	  0.45	  3.95	  0.46	  3.49	  0.30	   nan	   nan	  3.49	  0.30
L:155	GLN	  4.23	  0.60	  4.24	  0.38	  4.22	  0.73	  3.51	  0.04	  4.69	  0.57
L:156	SER	  3.43	  0.35	  3.62	  0.27	  3.06	  0.11	  2.95	  0.00	  3.16	  0.00
L:157	GLY	  3.30	  0.24	  3.30	  0.24	   nan	   nan	   nan	   nan	   nan	   nan
L:158	ASN	  3.92	  0.44	  4.07	  0.25	  3.78	  0.53	  3.96	  0.67	  3.60	  0.24
L:159	SER	  4.20	  0.55	  4.13	  0.53	  4.35	  0.56	  3.79	  0.00	  4.90	  0.00
L:160	GLN	  4.04	  0.61	  4.47	  0.54	  3.70	  0.42	  3.67	  0.54	  3.73	  0.32
L:161	GLU	  3.72	  0.29	  3.86	  0.33	  3.60	  0.18	  3.50	  0.25	  3.68	  0.03
L:162	SER	  4.65	  0.42	  4.62	  0.48	  4.72	  0.21	  4.51	  0.00	  4.93	  0.00
L:163	VAL	  3.86	  0.39	  3.89	  0.30	  3.83	  0.48	   nan	   nan	  3.83	  0.48
L:164	THR	  4.63	  0.38	  4.74	  0.29	  4.48	  0.43	  3.88	  0.00	  4.79	  0.02
L:165	GLU	  3.85	  0.43	  4.16	  0.21	  3.61	  0.40	  3.21	  0.06	  3.87	  0.29
L:166	GLN	  6.18	  1.13	  5.01	  0.58	  7.11	  0.31	  7.05	  0.28	  7.15	  0.32
L:167	ASP	  4.57	  0.70	  5.04	  0.54	  4.10	  0.48	  3.75	  0.37	  4.44	  0.29
L:168	SER	  4.05	  0.57	  4.42	  0.25	  3.31	  0.21	  3.11	  0.00	  3.52	  0.00
L:169	LYS	  3.53	  0.57	  3.99	  0.54	  3.15	  0.18	  2.97	  0.00	  3.20	  0.17
L:170	ASP	  3.87	  0.45	  3.92	  0.22	  3.83	  0.60	  4.10	  0.68	  3.55	  0.33
L:171	SER	  5.55	  0.92	  6.05	  0.71	  4.56	  0.25	  4.31	  0.00	  4.81	  0.00
L:172	THR	  6.24	  0.83	  6.89	  0.30	  5.39	  0.46	  5.53	  0.00	  5.32	  0.55
L:173	TYR	  6.77	  0.92	  7.71	  0.08	  6.30	  0.79	  5.08	  0.00	  6.48	  0.68
L:174	SER	  7.33	  0.52	  7.61	  0.38	  6.78	  0.24	  6.54	  0.00	  7.01	  0.00
L:175	LEU	  7.15	  1.50	  8.44	  0.73	  5.86	  0.78	   nan	   nan	  5.86	  0.78
L:176	SER	  8.58	  0.97	  8.09	  0.77	  9.57	  0.43	  9.13	  0.00	 10.00	  0.00
L:177	SER	  7.67	  1.26	  8.41	  0.80	  6.21	  0.49	  5.72	  0.00	  6.70	  0.00
L:178	THR	  7.95	  0.78	  7.51	  0.72	  8.55	  0.36	  9.05	  0.00	  8.30	  0.07
L:179	LEU	  7.04	  0.52	  7.09	  0.51	  6.99	  0.52	   nan	   nan	  6.99	  0.52
L:180	THR	  4.20	  0.61	  4.50	  0.61	  3.81	  0.31	  4.19	  0.00	  3.62	  0.17
L:181	LEU	  4.68	  0.63	  4.25	  0.26	  5.11	  0.59	   nan	   nan	  5.11	  0.59
L:182	SER	  4.02	  0.79	  4.36	  0.75	  3.34	  0.23	  3.57	  0.00	  3.11	  0.00
L:183	LYS	  4.15	  0.62	  4.69	  0.24	  3.71	  0.47	  3.07	  0.00	  3.87	  0.39
L:184	ALA	  3.70	  0.37	  3.86	  0.21	  3.06	  0.00	   nan	   nan	  3.06	  0.00
L:185	ASP	  4.23	  0.83	  5.01	  0.23	  3.45	  0.33	  3.16	  0.12	  3.74	  0.22
L:186	TYR	  6.18	  0.91	  6.44	  0.28	  6.05	  1.07	  4.52	  0.00	  6.27	  0.96
L:187	GLU	  3.91	  0.67	  4.24	  0.77	  3.65	  0.41	  3.24	  0.16	  3.92	  0.29
L:188	LYS	  3.59	  0.40	  3.85	  0.43	  3.38	  0.22	  3.08	  0.00	  3.45	  0.18
L:189	HIS	  4.37	  0.66	  4.77	  0.18	  4.10	  0.72	  3.78	  0.62	  4.26	  0.71
L:190	LYS	  4.16	  1.09	  5.20	  0.76	  3.32	  0.31	  2.89	  0.00	  3.43	  0.25
L:191	VAL	  4.55	  1.05	  5.42	  0.36	  3.41	  0.28	   nan	   nan	  3.41	  0.28
L:192	TYR	  7.18	  0.89	  6.10	  0.38	  7.73	  0.48	  6.83	  0.00	  7.86	  0.37
L:193	ALA	  5.39	  0.85	  5.78	  0.40	  3.86	  0.00	   nan	   nan	  3.86	  0.00
L:194	CYS	  7.23	  0.82	  6.68	  0.27	  8.35	  0.01	  8.35	  0.00	  8.34	  0.00
L:195	GLU	  5.30	  1.40	  6.71	  0.46	  4.18	  0.72	  3.47	  0.24	  4.65	  0.50
L:196	VAL	  7.41	  0.67	  7.01	  0.58	  7.95	  0.31	   nan	   nan	  7.95	  0.31
L:197	THR	  4.17	  0.79	  4.60	  0.70	  3.60	  0.46	  3.95	  0.00	  3.43	  0.48
L:198	HIS	  5.05	  0.97	  3.92	  0.16	  5.80	  0.35	  5.89	  0.41	  5.76	  0.30
L:199	GLN	  3.43	  0.27	  3.55	  0.29	  3.33	  0.22	  3.12	  0.13	  3.48	  0.12
L:200	GLY	  3.79	  0.53	  3.79	  0.53	   nan	   nan	   nan	   nan	   nan	   nan
L:201	LEU	  4.28	  0.58	  3.98	  0.30	  4.57	  0.64	   nan	   nan	  4.57	  0.64
L:202	SER	  3.34	  0.29	  3.47	  0.27	  3.07	  0.04	  3.03	  0.00	  3.12	  0.00
L:203	SER	  3.69	  0.46	  4.00	  0.15	  3.07	  0.03	  3.11	  0.00	  3.04	  0.00
L:204	PRO	  3.76	  0.45	  3.93	  0.47	  3.52	  0.28	   nan	   nan	  3.52	  0.28
L:205	VAL	  4.26	  0.73	  4.76	  0.54	  3.60	  0.30	   nan	   nan	  3.60	  0.30
L:206	THR	  3.69	  0.39	  3.88	  0.43	  3.44	  0.06	  3.36	  0.00	  3.48	  0.02
L:207	LYS	  4.34	  0.65	  4.74	  0.32	  4.02	  0.66	  3.10	  0.00	  4.25	  0.53
L:208	SER	  3.67	  0.49	  3.81	  0.49	  3.40	  0.36	  3.04	  0.00	  3.76	  0.00
L:209	PHE	  4.73	  0.73	  4.46	  0.53	  4.89	  0.77	   nan	   nan	  4.89	  0.77
L:210	ASN	  4.11	  0.54	  4.47	  0.42	  3.75	  0.39	  3.47	  0.27	  4.04	  0.26
L:211	ARG	  4.23	  0.67	  4.55	  0.68	  4.04	  0.60	  3.60	  0.40	  4.38	  0.49
L:212	GLY	  3.34	  0.23	  3.34	  0.23	   nan	   nan	   nan	   nan	   nan	   nan
L:213	GLU	  3.43	  0.34	  3.40	  0.40	  3.46	  0.28	  3.20	  0.03	  3.63	  0.23
H:1	GLU	  3.37	  0.40	  3.67	  0.42	  3.14	  0.14	  3.00	  0.09	  3.23	  0.07
H:2	VAL	  3.85	  0.48	  3.99	  0.43	  3.66	  0.47	   nan	   nan	  3.66	  0.47
H:3	GLN	  4.20	  0.79	  4.95	  0.40	  3.61	  0.45	  3.12	  0.08	  3.93	  0.26
H:4	LEU	  5.71	  1.16	  4.66	  0.48	  6.77	  0.50	   nan	   nan	  6.77	  0.50
H:5	VAL	  4.25	  0.74	  4.87	  0.19	  3.43	  0.25	   nan	   nan	  3.43	  0.25
H:6	GLU	  5.99	  1.36	  4.62	  0.68	  7.08	  0.52	  7.30	  0.35	  6.94	  0.57
H:7	SER	  3.99	  0.61	  4.37	  0.36	  3.23	  0.02	  3.20	  0.00	  3.25	  0.00
H:8	GLY	  3.68	  0.17	  3.68	  0.17	   nan	   nan	   nan	   nan	   nan	   nan
H:9	GLY	  3.86	  0.42	  3.86	  0.42	   nan	   nan	   nan	   nan	   nan	   nan
H:10	GLY	  4.50	  0.50	  4.50	  0.50	   nan	   nan	   nan	   nan	   nan	   nan
H:11	LEU	  4.07	  0.51	  3.89	  0.43	  4.24	  0.52	   nan	   nan	  4.24	  0.52
H:12	VAL	  4.47	  0.63	  4.40	  0.48	  4.57	  0.78	   nan	   nan	  4.57	  0.78
H:13	GLN	  3.73	  0.54	  4.24	  0.38	  3.32	  0.20	  3.12	  0.17	  3.45	  0.05
H:14	PRO	  3.78	  0.49	  3.93	  0.54	  3.59	  0.34	   nan	   nan	  3.59	  0.34
H:15	GLY	  3.40	  0.26	  3.40	  0.26	   nan	   nan	   nan	   nan	   nan	   nan
H:16	GLY	  4.09	  0.65	  4.09	  0.65	   nan	   nan	   nan	   nan	   nan	   nan
H:17	SER	  3.54	  0.36	  3.69	  0.34	  3.23	  0.11	  3.12	  0.00	  3.34	  0.00
H:18	LEU	  4.47	  0.61	  4.43	  0.49	  4.50	  0.71	   nan	   nan	  4.50	  0.71
H:19	ARG	  3.75	  0.44	  4.06	  0.39	  3.58	  0.37	  3.28	  0.21	  3.80	  0.31
H:20	LEU	  6.51	  0.97	  5.73	  0.26	  7.30	  0.77	   nan	   nan	  7.30	  0.77
H:21	SER	  4.89	  0.84	  5.46	  0.27	  3.76	  0.20	  3.56	  0.00	  3.96	  0.00
H:22	CYS	  6.73	  1.01	  6.04	  0.22	  8.12	  0.29	  8.41	  0.00	  7.82	  0.00
H:23	ALA	  4.34	  0.54	  4.60	  0.19	  3.31	  0.00	   nan	   nan	  3.31	  0.00
H:24	ALA	  4.79	  0.86	  4.47	  0.66	  6.05	  0.00	   nan	   nan	  6.05	  0.00
H:25	SER	  4.08	  0.69	  4.49	  0.46	  3.26	  0.06	  3.33	  0.00	  3.20	  0.00
H:26	GLY	  3.45	  0.14	  3.45	  0.14	   nan	   nan	   nan	   nan	   nan	   nan
H:27	TYR	  5.30	  1.49	  3.68	  0.14	  6.11	  1.16	  8.01	  0.00	  5.84	  0.97
H:28	THR	  3.97	  0.72	  4.40	  0.63	  3.40	  0.29	  3.09	  0.00	  3.55	  0.24
H:29	PHE	  5.96	  1.17	  5.36	  0.96	  6.31	  1.13	   nan	   nan	  6.31	  1.13
H:30	THR	  4.61	  0.91	  5.35	  0.34	  3.62	  0.29	  3.25	  0.00	  3.81	  0.16
H:31	ASN	  5.66	  1.41	  6.88	  0.79	  4.43	  0.62	  3.95	  0.26	  4.91	  0.48
H:32	TYR	  6.50	  2.10	  9.06	  0.75	  5.23	  1.21	  3.39	  0.00	  5.49	  1.06
H:33	GLY	 10.99	  0.37	 10.99	  0.37	   nan	   nan	   nan	   nan	   nan	   nan
H:34	MET	 11.89	  0.75	 12.26	  0.55	 11.52	  0.73	 11.53	  0.00	 11.52	  0.85
H:35	ASN	 12.92	  0.32	 13.12	  0.29	 12.73	  0.20	 12.66	  0.20	 12.80	  0.17
H:36	TRP	 11.37	  1.04	 11.77	  0.84	 11.21	  1.07	 11.08	  0.00	 11.22	  1.13
H:37	VAL	 10.44	  0.53	 10.63	  0.55	 10.19	  0.38	   nan	   nan	 10.19	  0.38
H:38	ARG	  6.09	  1.37	  7.16	  0.92	  5.48	  1.19	  4.62	  0.76	  6.12	  1.03
H:39	GLN	  4.91	  0.73	  5.46	  0.61	  4.48	  0.49	  4.10	  0.03	  4.73	  0.49
H:40	ALA	  4.44	  0.37	  4.59	  0.25	  3.85	  0.00	   nan	   nan	  3.85	  0.00
H:41	PRO	  3.41	  0.27	  3.49	  0.29	  3.30	  0.21	   nan	   nan	  3.30	  0.21
H:42	GLY	  3.25	  0.21	  3.25	  0.21	   nan	   nan	   nan	   nan	   nan	   nan
H:43	LYS	  3.59	  0.39	  3.97	  0.17	  3.29	  0.21	  2.95	  0.00	  3.37	  0.13
H:44	GLY	  4.06	  0.29	  4.06	  0.29	   nan	   nan	   nan	   nan	   nan	   nan
H:45	LEU	  5.79	  1.53	  4.38	  0.52	  7.19	  0.70	   nan	   nan	  7.19	  0.70
H:46	GLU	  4.27	  0.88	  5.07	  0.73	  3.63	  0.18	  3.42	  0.06	  3.77	  0.07
H:47	TRP	  7.49	  1.42	  6.13	  0.56	  8.03	  1.29	 10.23	  0.00	  7.79	  1.12
H:48	VAL	  8.47	  0.62	  8.00	  0.34	  9.09	  0.27	   nan	   nan	  9.09	  0.27
H:49	GLY	  9.03	  0.75	  9.03	  0.75	   nan	   nan	   nan	   nan	   nan	   nan
H:50	TRP	  8.31	  0.85	  8.52	  0.68	  8.22	  0.89	  7.19	  0.00	  8.33	  0.87
H:51	ILE	  7.69	  1.48	  8.78	  0.62	  6.60	  1.27	   nan	   nan	  6.60	  1.27
H:52	ASN	  6.59	  0.65	  6.87	  0.75	  6.31	  0.33	  6.10	  0.33	  6.52	  0.12
H:53	THR	  6.31	  1.28	  5.46	  1.02	  7.45	  0.45	  7.60	  0.00	  7.37	  0.53
H:54	TYR	  4.02	  0.65	  4.19	  0.76	  3.93	  0.58	  3.33	  0.00	  4.02	  0.57
H:55	THR	  3.82	  0.44	  3.77	  0.45	  3.88	  0.41	  4.46	  0.00	  3.59	  0.07
H:56	GLY	  3.84	  0.25	  3.84	  0.25	   nan	   nan	   nan	   nan	   nan	   nan
H:57	GLU	  3.94	  0.65	  4.54	  0.48	  3.46	  0.25	  3.29	  0.29	  3.57	  0.13
H:58	PRO	  4.03	  0.57	  4.20	  0.54	  3.81	  0.54	   nan	   nan	  3.81	  0.54
H:59	THR	  4.70	  0.59	  4.98	  0.60	  4.32	  0.29	  4.35	  0.00	  4.31	  0.35
H:60	TYR	  4.65	  0.72	  4.22	  0.56	  4.86	  0.70	  4.04	  0.00	  4.97	  0.67
H:61	ALA	  5.04	  0.40	  4.87	  0.23	  5.72	  0.00	   nan	   nan	  5.72	  0.00
H:62	ALA	  3.61	  0.24	  3.70	  0.18	  3.26	  0.00	   nan	   nan	  3.26	  0.00
H:63	ASP	  3.63	  0.40	  3.95	  0.27	  3.31	  0.21	  3.24	  0.26	  3.38	  0.06
H:64	PHE	  5.60	  0.57	  5.70	  0.32	  5.54	  0.67	   nan	   nan	  5.54	  0.67
H:65	LYS	  3.68	  0.67	  4.28	  0.54	  3.21	  0.24	  2.90	  0.00	  3.28	  0.20
H:66	ARG	  3.43	  0.27	  3.66	  0.28	  3.29	  0.14	  3.20	  0.09	  3.36	  0.13
H:67	ARG	  4.94	  0.31	  4.93	  0.12	  4.94	  0.37	  4.88	  0.53	  4.98	  0.18
H:68	PHE	  6.80	  1.40	  5.13	  0.60	  7.76	  0.62	   nan	   nan	  7.76	  0.62
H:69	THR	  4.33	  0.95	  5.12	  0.30	  3.29	  0.22	  3.10	  0.00	  3.38	  0.22
H:70	PHE	  6.92	  1.75	  4.92	  0.75	  8.06	  0.94	   nan	   nan	  8.06	  0.94
H:71	SER	  4.26	  0.82	  4.73	  0.58	  3.33	  0.12	  3.44	  0.00	  3.21	  0.00
H:72	LEU	  4.07	  0.52	  4.01	  0.49	  4.13	  0.54	   nan	   nan	  4.13	  0.54
H:73	ASP	  3.99	  0.70	  4.53	  0.55	  3.45	  0.29	  3.20	  0.09	  3.70	  0.20
H:74	THR	  3.67	  0.39	  3.89	  0.35	  3.37	  0.20	  3.11	  0.00	  3.50	  0.07
H:75	SER	  3.40	  0.32	  3.56	  0.27	  3.08	  0.12	  3.20	  0.00	  2.95	  0.00
H:76	LYS	  3.64	  0.41	  3.89	  0.34	  3.44	  0.35	  2.98	  0.00	  3.56	  0.30
H:77	SER	  4.38	  0.79	  4.87	  0.40	  3.40	  0.32	  3.08	  0.00	  3.72	  0.00
H:78	THR	  5.24	  1.13	  6.16	  0.41	  4.02	  0.35	  3.54	  0.00	  4.26	  0.12
H:79	ALA	  7.50	  0.83	  7.12	  0.36	  9.03	  0.00	   nan	   nan	  9.03	  0.00
H:80	TYR	  5.15	  1.32	  6.87	  0.17	  4.29	  0.63	  3.34	  0.00	  4.43	  0.55
H:81	LEU	  8.51	  1.59	  7.07	  0.33	  9.95	  0.89	   nan	   nan	  9.95	  0.89
H:82	GLN	  4.60	  1.15	  5.85	  0.28	  3.60	  0.25	  3.42	  0.17	  3.72	  0.22
H:83	MET	  7.87	  1.44	  6.53	  0.38	  9.22	  0.62	  9.22	  0.00	  9.22	  0.71
H:84	ASN	  4.38	  0.89	  5.22	  0.37	  3.53	  0.12	  3.45	  0.13	  3.60	  0.02
H:85	SER	  3.99	  0.45	  4.26	  0.20	  3.44	  0.27	  3.17	  0.00	  3.71	  0.00
H:86	LEU	  6.05	  1.46	  4.74	  0.61	  7.36	  0.65	   nan	   nan	  7.36	  0.65
H:87	ARG	  3.86	  0.75	  4.71	  0.61	  3.37	  0.12	  3.25	  0.08	  3.45	  0.05
H:88	ALA	  3.63	  0.38	  3.79	  0.22	  2.98	  0.00	   nan	   nan	  2.98	  0.00
H:89	GLU	  3.67	  0.31	  3.94	  0.18	  3.45	  0.20	  3.24	  0.08	  3.59	  0.12
H:90	ASP	  5.83	  0.60	  5.88	  0.58	  5.79	  0.61	  5.40	  0.55	  6.18	  0.38
H:91	THR	  4.33	  0.62	  4.80	  0.35	  3.70	  0.18	  3.85	  0.00	  3.62	  0.18
H:92	ALA	  6.02	  0.23	  5.98	  0.24	  6.20	  0.00	   nan	   nan	  6.20	  0.00
H:93	VAL	  4.96	  1.15	  5.82	  0.65	  3.81	  0.45	   nan	   nan	  3.81	  0.45
H:94	TYR	  8.96	  1.14	  7.78	  0.59	  9.55	  0.85	  7.68	  0.00	  9.82	  0.50
H:95	TYR	  7.31	  1.95	  9.57	  0.86	  6.19	  1.22	  4.17	  0.00	  6.47	  1.02
H:96	CYS	  9.10	  1.01	  8.82	  0.97	  9.65	  0.84	  8.82	  0.00	 10.49	  0.00
H:97	ALA	  9.37	  0.85	  9.62	  0.78	  8.40	  0.00	   nan	   nan	  8.40	  0.00
H:98	LYS	  6.89	  1.61	  8.28	  0.50	  5.78	  1.30	  3.96	  0.00	  6.24	  1.04
H:99	TYR	  9.97	  1.95	  7.50	  0.95	 11.20	  0.84	 10.69	  0.00	 11.27	  0.88
H:100	PRO	  6.28	  0.75	  6.02	  0.56	  6.63	  0.82	   nan	   nan	  6.63	  0.82
H:101	HIS	  4.21	  0.50	  4.72	  0.26	  3.87	  0.30	  4.01	  0.31	  3.80	  0.26
H:102	TYR	  6.88	  0.94	  5.94	  0.20	  7.34	  0.80	  7.54	  0.00	  7.32	  0.85
H:103	TYR	  3.55	  0.41	  3.84	  0.58	  3.41	  0.16	  3.08	  0.00	  3.45	  0.11
H:104	GLY	  3.63	  0.20	  3.63	  0.20	   nan	   nan	   nan	   nan	   nan	   nan
H:105	SER	  4.13	  0.79	  4.57	  0.61	  3.27	  0.05	  3.22	  0.00	  3.32	  0.00
H:106	SER	  5.55	  0.63	  5.21	  0.43	  6.21	  0.38	  6.60	  0.00	  5.83	  0.00
H:107	HIS	  5.99	  1.47	  7.49	  0.78	  4.99	  0.83	  4.63	  0.65	  5.16	  0.86
H:108	TRP	  8.88	  1.52	 10.37	  1.44	  8.29	  1.09	  6.51	  0.00	  8.49	  0.96
H:109	TYR	  8.07	  1.97	 10.23	  0.54	  6.99	  1.48	  4.59	  0.00	  7.34	  1.25
H:110	PHE	  9.88	  2.00	  7.81	  1.32	 11.06	  1.20	   nan	   nan	 11.06	  1.20
H:111	ASP	  4.50	  0.87	  4.74	  1.04	  4.27	  0.57	  4.10	  0.75	  4.44	  0.19
H:112	VAL	  4.33	  0.73	  4.77	  0.62	  3.74	  0.33	   nan	   nan	  3.74	  0.33
H:113	TRP	  5.44	  1.54	  3.97	  0.47	  6.03	  1.42	  5.15	  0.00	  6.12	  1.47
H:114	GLY	  4.37	  0.45	  4.37	  0.45	   nan	   nan	   nan	   nan	   nan	   nan
H:115	GLN	  3.74	  0.45	  3.84	  0.27	  3.65	  0.54	  3.97	  0.63	  3.44	  0.32
H:116	GLY	  4.37	  0.66	  4.37	  0.66	   nan	   nan	   nan	   nan	   nan	   nan
H:117	THR	  4.55	  0.64	  4.53	  0.51	  4.58	  0.78	  5.60	  0.00	  4.06	  0.34
H:118	LEU	  4.11	  0.55	  4.51	  0.50	  3.71	  0.19	   nan	   nan	  3.71	  0.19
H:119	VAL	  7.12	  0.79	  6.48	  0.32	  7.98	  0.25	   nan	   nan	  7.98	  0.25
H:120	THR	  5.00	  0.83	  5.63	  0.44	  4.15	  0.32	  3.80	  0.00	  4.33	  0.24
H:121	VAL	  5.22	  0.91	  4.62	  0.69	  6.01	  0.40	   nan	   nan	  6.01	  0.40
H:122	SER	  4.33	  0.61	  4.71	  0.33	  3.58	  0.16	  3.41	  0.00	  3.74	  0.00
H:123	SER	  3.69	  0.45	  3.93	  0.34	  3.22	  0.20	  3.02	  0.00	  3.41	  0.00
H:124	ALA	  3.81	  0.35	  3.93	  0.26	  3.30	  0.00	   nan	   nan	  3.30	  0.00
H:125	SER	  3.74	  0.51	  4.06	  0.24	  3.10	  0.19	  2.90	  0.00	  3.29	  0.00
H:126	THR	  3.77	  0.36	  3.90	  0.42	  3.60	  0.14	  3.42	  0.00	  3.70	  0.06
H:127	LYS	  4.00	  0.70	  4.61	  0.57	  3.51	  0.31	  3.49	  0.00	  3.52	  0.34
H:128	GLY	  4.05	  0.22	  4.05	  0.22	   nan	   nan	   nan	   nan	   nan	   nan
H:129	PRO	  5.19	  0.95	  4.52	  0.68	  6.08	  0.31	   nan	   nan	  6.08	  0.31
H:130	SER	  4.46	  0.87	  4.93	  0.61	  3.51	  0.42	  3.09	  0.00	  3.93	  0.00
H:131	VAL	  4.83	  0.47	  4.63	  0.37	  5.10	  0.46	   nan	   nan	  5.10	  0.46
H:132	PHE	  6.00	  1.06	  6.87	  0.54	  5.50	  0.96	   nan	   nan	  5.50	  0.96
H:133	PRO	  5.30	  0.86	  6.01	  0.22	  4.35	  0.32	   nan	   nan	  4.35	  0.32
H:134	LEU	  7.94	  1.44	  6.72	  0.30	  9.15	  1.07	   nan	   nan	  9.15	  1.07
H:135	ALA	  4.69	  0.44	  4.86	  0.31	  4.01	  0.00	   nan	   nan	  4.01	  0.00
H:136	PRO	  5.25	  0.80	  4.75	  0.71	  5.90	  0.27	   nan	   nan	  5.90	  0.27
H:137	SER	  3.39	  0.42	  3.52	  0.45	  3.12	  0.12	  3.00	  0.00	  3.24	  0.00
H:144	GLY	  3.32	  0.26	  3.32	  0.26	   nan	   nan	   nan	   nan	   nan	   nan
H:145	THR	  3.57	  0.29	  3.65	  0.33	  3.46	  0.18	  3.24	  0.00	  3.57	  0.11
H:146	ALA	  5.07	  0.66	  5.23	  0.65	  4.45	  0.00	   nan	   nan	  4.45	  0.00
H:147	ALA	  6.28	  0.54	  6.25	  0.60	  6.38	  0.00	   nan	   nan	  6.38	  0.00
H:148	LEU	  8.98	  0.70	  9.27	  0.81	  8.70	  0.39	   nan	   nan	  8.70	  0.39
H:149	GLY	 10.08	  0.66	 10.08	  0.66	   nan	   nan	   nan	   nan	   nan	   nan
H:150	CYS	 10.52	  0.76	 10.96	  0.49	  9.62	  0.27	  9.89	  0.00	  9.36	  0.00
H:151	LEU	  9.87	  0.79	  9.74	  0.94	 10.01	  0.56	   nan	   nan	 10.01	  0.56
H:152	VAL	  9.35	  0.38	  9.47	  0.42	  9.17	  0.22	   nan	   nan	  9.17	  0.22
H:153	LYS	  6.08	  1.12	  6.90	  0.83	  5.43	  0.86	  4.15	  0.00	  5.76	  0.64
H:154	ASP	  4.86	  1.08	  5.84	  0.33	  3.87	  0.53	  3.62	  0.60	  4.13	  0.26
H:155	TYR	  7.56	  1.03	  7.04	  0.10	  7.82	  1.17	  5.67	  0.00	  8.13	  0.91
H:156	PHE	  5.37	  1.05	  6.64	  0.22	  4.65	  0.53	   nan	   nan	  4.65	  0.53
H:157	PRO	  6.25	  0.50	  6.54	  0.41	  5.87	  0.33	   nan	   nan	  5.87	  0.33
H:158	GLU	  4.49	  0.70	  5.20	  0.12	  3.92	  0.37	  3.54	  0.19	  4.17	  0.21
H:159	PRO	  4.27	  0.77	  4.88	  0.36	  3.46	  0.25	   nan	   nan	  3.46	  0.25
H:160	VAL	  5.21	  1.07	  4.48	  0.65	  6.19	  0.67	   nan	   nan	  6.19	  0.67
H:161	THR	  4.10	  0.70	  4.63	  0.36	  3.39	  0.30	  3.21	  0.00	  3.49	  0.32
H:162	VAL	  4.67	  0.89	  4.01	  0.51	  5.55	  0.35	   nan	   nan	  5.55	  0.35
H:163	SER	  4.30	  0.89	  4.80	  0.67	  3.31	  0.15	  3.46	  0.00	  3.16	  0.00
H:164	TRP	  7.19	  1.63	  5.61	  0.42	  7.82	  1.50	  6.53	  0.00	  7.96	  1.51
H:165	ASN	  4.13	  0.54	  4.28	  0.69	  3.99	  0.23	  4.06	  0.30	  3.91	  0.07
H:166	SER	  3.47	  0.43	  3.62	  0.45	  3.15	  0.06	  3.10	  0.00	  3.21	  0.00
H:167	GLY	  3.60	  0.30	  3.60	  0.30	   nan	   nan	   nan	   nan	   nan	   nan
H:168	ALA	  3.48	  0.30	  3.59	  0.24	  3.07	  0.00	   nan	   nan	  3.07	  0.00
H:169	LEU	  4.52	  0.44	  4.69	  0.17	  4.34	  0.55	   nan	   nan	  4.34	  0.55
H:170	THR	  3.69	  0.49	  3.98	  0.46	  3.31	  0.13	  3.18	  0.00	  3.37	  0.11
H:171	SER	  3.70	  0.46	  4.00	  0.22	  3.10	  0.00	  3.11	  0.00	  3.10	  0.00
H:172	GLY	  4.12	  0.67	  4.12	  0.67	   nan	   nan	   nan	   nan	   nan	   nan
H:173	VAL	  4.30	  0.48	  4.27	  0.51	  4.34	  0.43	   nan	   nan	  4.34	  0.43
H:174	HIS	  4.79	  0.56	  5.06	  0.52	  4.61	  0.51	  4.19	  0.26	  4.82	  0.48
H:175	THR	  3.86	  0.33	  4.00	  0.38	  3.67	  0.04	  3.64	  0.00	  3.69	  0.04
H:176	PHE	  6.51	  1.31	  4.88	  0.38	  7.44	  0.47	   nan	   nan	  7.44	  0.47
H:177	PRO	  3.98	  0.57	  4.24	  0.46	  3.63	  0.53	   nan	   nan	  3.63	  0.53
H:178	ALA	  4.15	  0.50	  4.05	  0.50	  4.56	  0.00	   nan	   nan	  4.56	  0.00
H:179	VAL	  4.56	  0.66	  4.57	  0.52	  4.55	  0.81	   nan	   nan	  4.55	  0.81
H:180	LEU	  3.69	  0.44	  3.77	  0.33	  3.61	  0.52	   nan	   nan	  3.61	  0.52
H:181	GLN	  4.67	  0.40	  4.47	  0.41	  4.84	  0.31	  4.79	  0.44	  4.87	  0.17
H:182	SER	  3.35	  0.27	  3.49	  0.24	  3.09	  0.08	  3.01	  0.00	  3.16	  0.00
H:183	SER	  3.41	  0.29	  3.40	  0.27	  3.42	  0.34	  3.76	  0.00	  3.09	  0.00
H:184	GLY	  3.90	  0.23	  3.90	  0.23	   nan	   nan	   nan	   nan	   nan	   nan
H:185	LEU	  5.04	  1.14	  5.98	  0.62	  4.09	  0.67	   nan	   nan	  4.09	  0.67
H:186	TYR	  5.82	  1.62	  7.62	  0.34	  4.92	  1.19	  3.19	  0.00	  5.17	  1.07
H:187	SER	  8.13	  0.37	  8.24	  0.39	  7.89	  0.12	  8.01	  0.00	  7.77	  0.00
H:188	LEU	  7.79	  2.31	  9.96	  0.81	  5.61	  0.78	   nan	   nan	  5.61	  0.78
H:189	SER	 10.23	  1.83	  9.28	  1.50	 12.13	  0.24	 12.37	  0.00	 11.89	  0.00
H:190	SER	  7.96	  1.53	  8.80	  1.11	  6.27	  0.49	  5.78	  0.00	  6.76	  0.00
H:191	VAL	  8.70	  1.13	  8.00	  0.68	  9.63	  0.93	   nan	   nan	  9.63	  0.93
H:192	VAL	  7.29	  0.64	  7.52	  0.60	  6.98	  0.56	   nan	   nan	  6.98	  0.56
H:193	THR	  4.51	  0.72	  4.78	  0.70	  4.15	  0.59	  3.38	  0.00	  4.53	  0.27
H:194	VAL	  4.99	  0.54	  4.73	  0.25	  5.33	  0.64	   nan	   nan	  5.33	  0.64
H:195	PRO	  4.13	  0.81	  4.72	  0.56	  3.34	  0.18	   nan	   nan	  3.34	  0.18
H:196	SER	  3.92	  0.59	  4.17	  0.53	  3.41	  0.30	  3.11	  0.00	  3.71	  0.00
H:197	SER	  3.44	  0.36	  3.62	  0.31	  3.08	  0.02	  3.10	  0.00	  3.06	  0.00
H:198	SER	  4.38	  0.61	  4.65	  0.53	  3.85	  0.37	  4.21	  0.00	  3.48	  0.00
H:199	LEU	  4.34	  0.58	  4.34	  0.45	  4.34	  0.68	   nan	   nan	  4.34	  0.68
H:200	GLY	  3.45	  0.26	  3.45	  0.26	   nan	   nan	   nan	   nan	   nan	   nan
H:201	THR	  3.49	  0.43	  3.71	  0.43	  3.18	  0.15	  3.32	  0.00	  3.11	  0.13
H:202	GLN	  4.02	  0.55	  4.52	  0.18	  3.62	  0.39	  3.21	  0.13	  3.89	  0.25
H:203	THR	  4.01	  0.57	  4.45	  0.30	  3.41	  0.17	  3.18	  0.00	  3.52	  0.07
H:204	TYR	  5.71	  0.98	  6.15	  0.33	  5.50	  1.12	  3.89	  0.00	  5.73	  1.00
H:205	ILE	  4.96	  1.26	  6.13	  0.46	  3.78	  0.43	   nan	   nan	  3.78	  0.43
H:206	CYS	  7.50	  0.75	  7.02	  0.36	  8.47	  0.08	  8.40	  0.00	  8.55	  0.00
H:207	ASN	  4.55	  0.63	  5.05	  0.52	  4.05	  0.15	  4.16	  0.09	  3.94	  0.12
H:208	VAL	  6.29	  1.08	  5.38	  0.21	  7.50	  0.28	   nan	   nan	  7.50	  0.28
H:209	ASN	  4.60	  0.97	  5.49	  0.42	  3.72	  0.35	  3.65	  0.49	  3.78	  0.01
H:210	HIS	  6.88	  0.68	  6.21	  0.41	  7.34	  0.39	  7.32	  0.39	  7.34	  0.39
H:211	LYS	  3.76	  0.60	  4.27	  0.55	  3.36	  0.21	  2.98	  0.00	  3.45	  0.11
H:212	PRO	  4.05	  0.34	  3.83	  0.27	  4.36	  0.07	   nan	   nan	  4.36	  0.07
H:213	SER	  4.04	  0.52	  3.99	  0.57	  4.15	  0.38	  4.54	  0.00	  3.77	  0.00
H:214	ASN	  3.59	  0.51	  3.92	  0.52	  3.26	  0.17	  3.09	  0.04	  3.42	  0.06
H:215	THR	  4.20	  0.52	  4.51	  0.41	  3.78	  0.30	  3.43	  0.00	  3.96	  0.21
H:216	LYS	  3.58	  0.44	  3.92	  0.38	  3.32	  0.26	  2.97	  0.00	  3.40	  0.22
H:217	VAL	  4.14	  0.51	  4.45	  0.40	  3.73	  0.31	   nan	   nan	  3.73	  0.31
H:218	ASP	  3.57	  0.36	  3.74	  0.37	  3.41	  0.27	  3.32	  0.36	  3.50	  0.00
H:219	LYS	  4.49	  0.73	  4.91	  0.50	  4.16	  0.71	  3.13	  0.00	  4.42	  0.55
H:220	LYS	  3.93	  0.47	  4.24	  0.35	  3.69	  0.41	  3.07	  0.00	  3.85	  0.30
H:221	VAL	  6.45	  0.61	  5.96	  0.26	  7.12	  0.16	   nan	   nan	  7.12	  0.16
H:222	GLU	  4.11	  0.76	  4.85	  0.34	  3.52	  0.40	  3.11	  0.06	  3.79	  0.28
H:223	PRO	  3.89	  0.52	  4.11	  0.53	  3.60	  0.31	   nan	   nan	  3.60	  0.31
H:224	LYS	  3.35	  0.25	  3.44	  0.32	  3.27	  0.11	  3.39	  0.00	  3.24	  0.11
V:14	VAL	  3.82	  0.54	  3.63	  0.43	  4.06	  0.57	   nan	   nan	  4.06	  0.57
V:15	VAL	  4.58	  0.72	  4.95	  0.73	  4.08	  0.24	   nan	   nan	  4.08	  0.24
V:16	LYS	  4.00	  0.83	  4.88	  0.37	  3.30	  0.18	  3.08	  0.00	  3.35	  0.15
V:17	PHE	  4.81	  0.66	  4.95	  0.43	  4.73	  0.75	   nan	   nan	  4.73	  0.75
V:18	MET	  3.92	  0.67	  4.51	  0.33	  3.34	  0.31	  3.16	  0.00	  3.40	  0.34
V:19	ASP	  4.05	  0.65	  4.65	  0.22	  3.44	  0.24	  3.23	  0.07	  3.65	  0.14
V:20	VAL	  7.05	  0.70	  6.59	  0.46	  7.66	  0.45	   nan	   nan	  7.66	  0.45
V:21	TYR	  4.55	  0.96	  5.67	  0.45	  3.99	  0.57	  3.22	  0.00	  4.10	  0.53
V:22	GLN	  3.60	  0.51	  3.99	  0.53	  3.30	  0.19	  3.08	  0.09	  3.44	  0.04
V:23	ARG	  3.76	  0.44	  4.25	  0.22	  3.49	  0.25	  3.40	  0.11	  3.55	  0.30
V:24	SER	  6.74	  0.75	  6.27	  0.38	  7.68	  0.25	  7.93	  0.00	  7.43	  0.00
V:25	TYR	  4.15	  0.69	  4.89	  0.44	  3.77	  0.45	  3.25	  0.00	  3.85	  0.43
V:26	CYS	  4.89	  0.75	  4.63	  0.80	  5.39	  0.05	  5.44	  0.00	  5.34	  0.00
V:27	HIS	  4.23	  0.79	  4.85	  0.62	  3.82	  0.61	  4.15	  0.54	  3.65	  0.57
V:28	PRO	  3.93	  0.47	  4.18	  0.46	  3.61	  0.18	   nan	   nan	  3.61	  0.18
V:29	ILE	  4.40	  0.45	  4.69	  0.43	  4.12	  0.25	   nan	   nan	  4.12	  0.25
V:30	GLU	  3.90	  0.40	  4.17	  0.29	  3.68	  0.34	  3.41	  0.14	  3.87	  0.31
V:31	THR	  4.29	  0.84	  4.90	  0.52	  3.47	  0.32	  3.51	  0.00	  3.45	  0.39
V:32	LEU	  4.41	  0.69	  4.03	  0.45	  4.79	  0.68	   nan	   nan	  4.79	  0.68
V:33	VAL	  4.69	  0.24	  4.66	  0.29	  4.72	  0.13	   nan	   nan	  4.72	  0.13
V:34	ASP	  4.21	  0.90	  4.95	  0.73	  3.47	  0.10	  3.38	  0.01	  3.57	  0.02
V:35	ILE	  6.87	  0.64	  6.36	  0.33	  7.38	  0.43	   nan	   nan	  7.38	  0.43
V:36	PHE	  4.07	  0.60	  4.57	  0.40	  3.78	  0.50	   nan	   nan	  3.78	  0.50
V:37	GLN	  3.61	  0.44	  3.81	  0.35	  3.45	  0.43	  3.06	  0.09	  3.71	  0.37
V:38	GLU	  4.17	  0.65	  4.29	  0.54	  4.08	  0.70	  3.37	  0.10	  4.55	  0.51
V:39	TYR	  4.33	  0.70	  4.89	  0.33	  4.05	  0.67	  3.51	  0.00	  4.13	  0.68
V:40	PRO	  3.70	  0.48	  3.96	  0.43	  3.36	  0.27	   nan	   nan	  3.36	  0.27
V:41	ASP	  3.61	  0.50	  4.05	  0.26	  3.16	  0.19	  2.98	  0.01	  3.35	  0.02
V:42	GLU	  4.76	  0.71	  5.20	  0.29	  4.41	  0.75	  3.87	  0.62	  4.78	  0.59
V:43	ILE	  3.81	  0.70	  4.23	  0.75	  3.40	  0.25	   nan	   nan	  3.40	  0.25
V:44	GLU	  3.69	  0.33	  3.99	  0.26	  3.46	  0.14	  3.34	  0.11	  3.54	  0.08
V:45	TYR	  5.19	  0.94	  4.44	  0.64	  5.57	  0.84	  4.43	  0.00	  5.73	  0.78
V:46	ILE	  4.34	  0.96	  5.13	  0.66	  3.54	  0.39	   nan	   nan	  3.54	  0.39
V:47	PHE	  5.72	  0.81	  5.18	  0.48	  6.03	  0.80	   nan	   nan	  6.03	  0.80
V:48	LYS	  5.82	  1.66	  7.34	  0.60	  4.60	  1.15	  3.15	  0.00	  4.96	  0.99
V:49	PRO	  7.59	  0.62	  7.17	  0.46	  8.14	  0.26	   nan	   nan	  8.14	  0.26
V:50	SER	  4.49	  0.74	  4.97	  0.36	  3.54	  0.15	  3.39	  0.00	  3.69	  0.00
V:51	CYS	  5.34	  1.11	  5.99	  0.78	  4.04	  0.11	  4.16	  0.00	  3.93	  0.00
V:52	VAL	  7.94	  0.96	  7.20	  0.45	  8.94	  0.35	   nan	   nan	  8.94	  0.35
V:53	PRO	  6.35	  0.83	  6.27	  0.93	  6.44	  0.66	   nan	   nan	  6.44	  0.66
V:54	LEU	  6.62	  0.40	  6.24	  0.12	  7.00	  0.16	   nan	   nan	  7.00	  0.16
V:55	MET	  4.73	  1.18	  5.83	  0.43	  3.64	  0.43	  3.70	  0.00	  3.62	  0.50
V:56	ARG	  4.58	  0.74	  5.38	  0.39	  4.12	  0.45	  4.10	  0.67	  4.13	  0.11
V:57	CYS	  4.30	  0.67	  4.08	  0.63	  4.74	  0.51	  5.25	  0.00	  4.24	  0.00
V:58	GLY	  4.40	  0.64	  4.40	  0.64	   nan	   nan	   nan	   nan	   nan	   nan
V:59	GLY	  4.02	  0.44	  4.02	  0.44	   nan	   nan	   nan	   nan	   nan	   nan
V:60	CYS	  4.65	  0.65	  4.66	  0.61	  4.63	  0.73	  5.36	  0.00	  3.90	  0.00
V:61	CYS	  4.42	  0.34	  4.31	  0.36	  4.64	  0.12	  4.76	  0.00	  4.51	  0.00
V:62	ASN	  4.43	  0.60	  3.97	  0.40	  4.90	  0.35	  5.12	  0.04	  4.69	  0.38
V:63	ASP	  3.65	  0.31	  3.82	  0.06	  3.47	  0.35	  3.17	  0.16	  3.77	  0.21
V:64	GLU	  3.45	  0.30	  3.71	  0.23	  3.24	  0.13	  3.17	  0.17	  3.29	  0.05
V:65	GLY	  3.55	  0.26	  3.55	  0.26	   nan	   nan	   nan	   nan	   nan	   nan
V:66	LEU	  4.35	  0.73	  4.73	  0.49	  3.96	  0.73	   nan	   nan	  3.96	  0.73
V:67	GLU	  4.15	  0.68	  4.71	  0.50	  3.70	  0.42	  3.29	  0.13	  3.97	  0.31
V:68	CYS	  4.17	  0.57	  3.96	  0.48	  4.61	  0.49	  5.10	  0.00	  4.11	  0.00
V:69	VAL	  4.34	  0.70	  4.89	  0.36	  3.60	  0.15	   nan	   nan	  3.60	  0.15
V:70	PRO	  4.01	  0.58	  4.12	  0.63	  3.86	  0.49	   nan	   nan	  3.86	  0.49
V:71	THR	  3.68	  0.39	  3.64	  0.49	  3.73	  0.19	  3.98	  0.00	  3.60	  0.08
V:72	GLU	  3.79	  0.53	  4.12	  0.58	  3.53	  0.30	  3.21	  0.04	  3.75	  0.17
V:73	GLU	  3.47	  0.26	  3.56	  0.31	  3.41	  0.20	  3.19	  0.14	  3.55	  0.06
V:74	SER	  4.02	  0.52	  4.29	  0.42	  3.46	  0.10	  3.56	  0.00	  3.37	  0.00
V:75	ASN	  3.65	  0.41	  3.89	  0.39	  3.40	  0.24	  3.22	  0.22	  3.58	  0.03
V:76	ILE	  4.75	  0.77	  4.92	  0.39	  4.58	  0.98	   nan	   nan	  4.58	  0.98
V:77	THR	  4.30	  0.70	  4.81	  0.40	  3.61	  0.30	  3.20	  0.00	  3.82	  0.12
V:78	MET	  6.83	  0.72	  7.15	  0.55	  6.51	  0.73	  6.69	  0.00	  6.45	  0.84
V:79	GLN	  6.17	  1.86	  8.05	  0.27	  4.67	  1.07	  3.68	  0.06	  5.34	  0.89
V:80	ILE	 10.08	  0.39	  9.84	  0.33	 10.33	  0.28	   nan	   nan	 10.33	  0.28
V:81	MET	  8.36	  1.15	  9.26	  0.39	  7.46	  0.93	  7.06	  0.00	  7.60	  1.04
V:82	ARG	  7.47	  1.97	  9.43	  0.44	  6.35	  1.60	  5.09	  0.77	  7.29	  1.39
V:83	ILE	  6.06	  0.81	  6.62	  0.67	  5.50	  0.50	   nan	   nan	  5.50	  0.50
V:84	LYS	  4.91	  0.89	  5.68	  0.44	  4.29	  0.63	  3.62	  0.00	  4.46	  0.60
V:85	PRO	  3.87	  0.40	  4.14	  0.32	  3.51	  0.13	   nan	   nan	  3.51	  0.13
V:86	HIS	  4.07	  0.80	  4.99	  0.22	  3.45	  0.31	  3.21	  0.05	  3.57	  0.32
V:87	GLN	  5.60	  1.63	  7.09	  1.07	  4.40	  0.80	  3.84	  0.56	  4.78	  0.71
V:88	GLY	  9.17	  0.60	  9.17	  0.60	   nan	   nan	   nan	   nan	   nan	   nan
V:89	GLN	  9.70	  1.11	 10.81	  0.45	  8.81	  0.56	  8.49	  0.58	  9.02	  0.42
V:90	HIS	 10.03	  0.45	 10.21	  0.36	  9.91	  0.46	  9.63	  0.18	 10.05	  0.49
V:91	ILE	  6.67	  1.42	  7.79	  0.72	  5.54	  1.01	   nan	   nan	  5.54	  1.01
V:92	GLY	  7.53	  0.27	  7.53	  0.27	   nan	   nan	   nan	   nan	   nan	   nan
V:93	GLU	  4.44	  0.86	  5.09	  0.71	  3.92	  0.56	  3.33	  0.07	  4.31	  0.35
V:94	MET	  5.26	  0.63	  4.73	  0.24	  5.79	  0.41	  6.48	  0.00	  5.57	  0.11
V:95	SER	  3.82	  0.47	  4.12	  0.24	  3.22	  0.07	  3.29	  0.00	  3.15	  0.00
V:96	PHE	  6.18	  1.03	  5.03	  0.22	  6.84	  0.66	   nan	   nan	  6.84	  0.66
V:97	LEU	  4.49	  0.96	  5.28	  0.69	  3.70	  0.32	   nan	   nan	  3.70	  0.32
V:98	GLN	  5.38	  1.18	  6.48	  0.20	  4.50	  0.85	  3.64	  0.18	  5.07	  0.62
V:99	HIS	  5.03	  1.01	  5.54	  0.85	  4.70	  0.97	  4.04	  0.19	  5.03	  1.04
V:100	ASN	  3.96	  0.54	  4.17	  0.64	  3.75	  0.26	  3.63	  0.33	  3.86	  0.03
V:101	LYS	  4.32	  0.98	  5.22	  0.55	  3.60	  0.56	  2.98	  0.00	  3.75	  0.52
V:102	CYS	  4.82	  0.72	  4.44	  0.52	  5.59	  0.33	  5.92	  0.00	  5.26	  0.00
V:103	GLU	  4.17	  0.85	  4.95	  0.52	  3.55	  0.45	  3.17	  0.11	  3.80	  0.41
V:104	CYS	  4.47	  0.50	  4.31	  0.46	  4.78	  0.42	  5.20	  0.00	  4.36	  0.00
V:105	ARG	  3.91	  0.71	  4.76	  0.30	  3.42	  0.29	  3.15	  0.19	  3.62	  0.14
V:106	PRO	  3.44	  0.38	  3.68	  0.29	  3.13	  0.22	   nan	   nan	  3.13	  0.22
V:107	LYS	  3.47	  0.30	  3.50	  0.37	  3.45	  0.23	  3.19	  0.00	  3.51	  0.21
W:14	VAL	  3.74	  0.58	  3.52	  0.41	  4.02	  0.64	   nan	   nan	  4.02	  0.64
W:15	VAL	  4.43	  0.72	  4.82	  0.70	  3.91	  0.28	   nan	   nan	  3.91	  0.28
W:16	LYS	  4.10	  0.84	  4.96	  0.44	  3.41	  0.19	  3.29	  0.00	  3.44	  0.20
W:17	PHE	  5.12	  0.63	  5.33	  0.28	  5.00	  0.73	   nan	   nan	  5.00	  0.73
W:18	MET	  4.00	  0.75	  4.67	  0.30	  3.34	  0.40	  3.14	  0.00	  3.41	  0.45
W:19	ASP	  3.97	  0.68	  4.59	  0.28	  3.34	  0.23	  3.12	  0.02	  3.57	  0.10
W:20	VAL	  6.95	  0.73	  6.52	  0.51	  7.53	  0.56	   nan	   nan	  7.53	  0.56
W:21	TYR	  4.49	  0.93	  5.59	  0.54	  3.95	  0.50	  3.29	  0.00	  4.04	  0.47
W:22	GLN	  3.56	  0.48	  3.93	  0.50	  3.26	  0.14	  3.10	  0.03	  3.37	  0.06
W:23	ARG	  3.92	  0.59	  4.59	  0.28	  3.54	  0.32	  3.40	  0.05	  3.65	  0.40
W:24	SER	  6.73	  0.62	  6.36	  0.27	  7.48	  0.40	  7.88	  0.00	  7.08	  0.00
W:25	TYR	  4.13	  0.82	  5.06	  0.51	  3.67	  0.47	  3.12	  0.00	  3.74	  0.45
W:26	CYS	  4.98	  0.61	  4.90	  0.74	  5.12	  0.05	  5.07	  0.00	  5.18	  0.00
W:27	HIS	  4.48	  0.82	  5.18	  0.55	  4.01	  0.60	  4.26	  0.70	  3.88	  0.50
W:28	PRO	  3.91	  0.54	  4.19	  0.50	  3.53	  0.32	   nan	   nan	  3.53	  0.32
W:29	ILE	  4.44	  0.48	  4.74	  0.44	  4.13	  0.28	   nan	   nan	  4.13	  0.28
W:30	GLU	  3.88	  0.47	  4.25	  0.30	  3.59	  0.35	  3.27	  0.00	  3.80	  0.29
W:31	THR	  4.42	  0.81	  4.99	  0.53	  3.66	  0.39	  3.81	  0.00	  3.59	  0.45
W:32	LEU	  4.36	  0.75	  3.92	  0.45	  4.80	  0.73	   nan	   nan	  4.80	  0.73
W:33	VAL	  4.66	  0.30	  4.72	  0.33	  4.57	  0.23	   nan	   nan	  4.57	  0.23
W:34	ASP	  4.11	  0.94	  4.86	  0.78	  3.36	  0.10	  3.26	  0.01	  3.46	  0.01
W:35	ILE	  6.79	  0.48	  6.43	  0.31	  7.15	  0.34	   nan	   nan	  7.15	  0.34
W:36	PHE	  4.10	  0.68	  4.68	  0.42	  3.77	  0.56	   nan	   nan	  3.77	  0.56
W:37	GLN	  3.67	  0.42	  3.83	  0.38	  3.53	  0.41	  3.15	  0.13	  3.79	  0.32
W:38	GLU	  4.15	  0.60	  4.15	  0.59	  4.15	  0.61	  3.54	  0.10	  4.57	  0.44
W:39	TYR	  4.20	  0.67	  4.73	  0.47	  3.94	  0.59	  3.37	  0.00	  4.02	  0.59
W:40	PRO	  3.77	  0.48	  4.11	  0.36	  3.32	  0.09	   nan	   nan	  3.32	  0.09
W:41	ASP	  3.57	  0.49	  4.00	  0.28	  3.13	  0.15	  3.02	  0.07	  3.24	  0.12
W:42	GLU	  4.73	  0.82	  5.28	  0.32	  4.28	  0.82	  3.62	  0.34	  4.72	  0.75
W:43	ILE	  3.83	  0.72	  4.29	  0.74	  3.37	  0.26	   nan	   nan	  3.37	  0.26
W:44	GLU	  3.71	  0.36	  4.06	  0.24	  3.44	  0.13	  3.36	  0.04	  3.49	  0.15
W:45	TYR	  5.10	  0.91	  4.46	  0.63	  5.42	  0.85	  4.25	  0.00	  5.59	  0.77
W:46	ILE	  4.11	  0.88	  4.82	  0.66	  3.40	  0.30	   nan	   nan	  3.40	  0.30
W:47	PHE	  5.41	  0.74	  4.92	  0.45	  5.70	  0.72	   nan	   nan	  5.70	  0.72
W:48	LYS	  5.85	  1.52	  7.19	  0.59	  4.78	  1.14	  3.18	  0.00	  5.18	  0.91
W:49	PRO	  7.50	  0.75	  6.98	  0.54	  8.19	  0.30	   nan	   nan	  8.19	  0.30
W:50	SER	  4.38	  0.72	  4.85	  0.34	  3.44	  0.04	  3.40	  0.00	  3.48	  0.00
W:51	CYS	  5.50	  1.07	  6.11	  0.78	  4.30	  0.11	  4.40	  0.00	  4.19	  0.00
W:52	VAL	  8.15	  0.89	  7.48	  0.54	  9.04	  0.30	   nan	   nan	  9.04	  0.30
W:53	PRO	  6.09	  0.87	  6.00	  0.98	  6.21	  0.66	   nan	   nan	  6.21	  0.66
W:54	LEU	  6.51	  0.41	  6.13	  0.15	  6.89	  0.18	   nan	   nan	  6.89	  0.18
W:55	MET	  4.81	  1.25	  5.95	  0.47	  3.67	  0.55	  3.59	  0.00	  3.69	  0.63
W:56	ARG	  4.63	  0.71	  5.38	  0.39	  4.20	  0.45	  4.23	  0.63	  4.18	  0.21
W:57	CYS	  4.24	  0.53	  4.09	  0.48	  4.54	  0.48	  5.02	  0.00	  4.06	  0.00
W:58	GLY	  4.27	  0.55	  4.27	  0.55	   nan	   nan	   nan	   nan	   nan	   nan
W:59	GLY	  3.77	  0.40	  3.77	  0.40	   nan	   nan	   nan	   nan	   nan	   nan
W:60	CYS	  4.79	  0.66	  4.85	  0.63	  4.68	  0.71	  5.38	  0.00	  3.97	  0.00
W:61	CYS	  4.71	  0.43	  4.55	  0.43	  5.04	  0.13	  5.17	  0.00	  4.90	  0.00
W:62	ASN	  4.55	  0.70	  4.02	  0.50	  5.08	  0.43	  5.35	  0.12	  4.81	  0.44
W:63	ASP	  3.63	  0.36	  3.85	  0.14	  3.41	  0.38	  3.07	  0.08	  3.74	  0.25
W:64	GLU	  3.35	  0.29	  3.62	  0.12	  3.14	  0.18	  3.08	  0.17	  3.18	  0.17
W:65	GLY	  3.47	  0.19	  3.47	  0.19	   nan	   nan	   nan	   nan	   nan	   nan
W:66	LEU	  4.34	  0.67	  4.69	  0.43	  3.99	  0.69	   nan	   nan	  3.99	  0.69
W:67	GLU	  4.22	  0.74	  4.83	  0.55	  3.74	  0.48	  3.27	  0.16	  4.05	  0.35
W:68	CYS	  4.26	  0.52	  4.07	  0.42	  4.63	  0.50	  5.13	  0.00	  4.13	  0.00
W:69	VAL	  4.41	  0.77	  5.00	  0.44	  3.63	  0.19	   nan	   nan	  3.63	  0.19
W:70	PRO	  4.08	  0.59	  4.24	  0.62	  3.87	  0.47	   nan	   nan	  3.87	  0.47
W:71	THR	  3.76	  0.43	  3.77	  0.54	  3.75	  0.17	  3.84	  0.00	  3.70	  0.19
W:72	GLU	  3.89	  0.70	  4.50	  0.57	  3.41	  0.29	  3.15	  0.06	  3.58	  0.24
W:73	GLU	  3.64	  0.37	  3.75	  0.40	  3.55	  0.31	  3.20	  0.14	  3.77	  0.15
W:74	SER	  3.95	  0.54	  4.21	  0.47	  3.43	  0.14	  3.57	  0.00	  3.29	  0.00
W:75	ASN	  3.51	  0.38	  3.72	  0.41	  3.31	  0.15	  3.17	  0.10	  3.44	  0.01
W:76	ILE	  4.32	  0.62	  4.45	  0.41	  4.19	  0.75	   nan	   nan	  4.19	  0.75
W:77	THR	  4.14	  0.62	  4.48	  0.49	  3.67	  0.43	  3.12	  0.00	  3.95	  0.23
W:78	MET	  6.76	  0.77	  7.08	  0.54	  6.44	  0.83	  6.36	  0.00	  6.46	  0.96
W:79	GLN	  6.10	  1.78	  7.91	  0.27	  4.65	  0.96	  3.71	  0.02	  5.27	  0.74
W:80	ILE	  9.54	  0.43	  9.46	  0.27	  9.61	  0.53	   nan	   nan	  9.61	  0.53
W:81	MET	  8.22	  1.10	  9.03	  0.38	  7.40	  0.98	  7.11	  0.00	  7.49	  1.11
W:82	ARG	  7.25	  2.03	  9.28	  0.46	  6.09	  1.64	  4.81	  0.81	  7.05	  1.42
W:83	ILE	  6.36	  0.83	  6.95	  0.67	  5.77	  0.49	   nan	   nan	  5.77	  0.49
W:84	LYS	  4.91	  1.04	  5.83	  0.51	  4.17	  0.72	  3.45	  0.00	  4.35	  0.70
W:85	PRO	  3.99	  0.46	  4.24	  0.39	  3.65	  0.33	   nan	   nan	  3.65	  0.33
W:86	HIS	  4.01	  0.84	  4.98	  0.25	  3.37	  0.31	  3.14	  0.12	  3.48	  0.32
W:87	GLN	  5.48	  1.62	  6.98	  1.07	  4.29	  0.78	  3.76	  0.57	  4.64	  0.71
W:88	GLY	  9.07	  0.78	  9.07	  0.78	   nan	   nan	   nan	   nan	   nan	   nan
W:89	GLN	  9.96	  1.14	 11.13	  0.17	  9.02	  0.57	  8.57	  0.32	  9.32	  0.49
W:90	HIS	  9.59	  0.66	 10.05	  0.70	  9.28	  0.40	  9.03	  0.16	  9.41	  0.42
W:91	ILE	  6.48	  1.21	  7.41	  0.35	  5.55	  1.04	   nan	   nan	  5.55	  1.04
W:92	GLY	  7.34	  0.20	  7.34	  0.20	   nan	   nan	   nan	   nan	   nan	   nan
W:93	GLU	  4.44	  0.88	  5.01	  0.80	  3.98	  0.63	  3.30	  0.10	  4.43	  0.37
W:94	MET	  5.17	  0.68	  4.59	  0.26	  5.74	  0.43	  6.48	  0.00	  5.50	  0.07
W:95	SER	  3.73	  0.46	  4.02	  0.26	  3.15	  0.01	  3.16	  0.00	  3.14	  0.00
W:96	PHE	  6.20	  0.93	  5.11	  0.22	  6.82	  0.53	   nan	   nan	  6.82	  0.53
W:97	LEU	  4.40	  0.92	  5.15	  0.69	  3.65	  0.27	   nan	   nan	  3.65	  0.27
W:98	GLN	  5.25	  1.23	  6.42	  0.19	  4.32	  0.87	  3.48	  0.30	  4.89	  0.63
W:99	HIS	  5.10	  1.03	  5.75	  0.80	  4.67	  0.93	  4.00	  0.23	  5.00	  0.98
W:100	ASN	  3.92	  0.51	  4.13	  0.63	  3.70	  0.18	  3.58	  0.16	  3.83	  0.02
W:101	LYS	  4.28	  0.92	  5.13	  0.50	  3.59	  0.52	  3.06	  0.00	  3.72	  0.50
W:102	CYS	  4.84	  0.69	  4.47	  0.52	  5.58	  0.27	  5.85	  0.00	  5.30	  0.00
W:103	GLU	  4.23	  0.88	  5.06	  0.48	  3.57	  0.48	  3.20	  0.20	  3.82	  0.44
W:104	CYS	  4.19	  0.47	  4.08	  0.50	  4.39	  0.30	  4.69	  0.00	  4.09	  0.00
W:105	ARG	  3.90	  0.77	  4.81	  0.40	  3.38	  0.31	  3.13	  0.18	  3.56	  0.26
W:106	PRO	  3.55	  0.43	  3.88	  0.27	  3.12	  0.01	   nan	   nan	  3.12	  0.01
W:107	LYS	  3.46	  0.35	  3.56	  0.41	  3.39	  0.27	  3.02	  0.00	  3.48	  0.22
J:1	ASP	  3.56	  0.33	  3.67	  0.40	  3.44	  0.17	  3.29	  0.05	  3.59	  0.11
J:2	ILE	  5.18	  0.69	  4.57	  0.25	  5.78	  0.42	   nan	   nan	  5.78	  0.42
J:3	GLN	  3.91	  0.66	  4.57	  0.23	  3.38	  0.33	  3.00	  0.01	  3.64	  0.10
J:4	MET	  6.05	  1.40	  4.90	  0.51	  7.20	  1.00	  7.60	  0.00	  7.07	  1.12
J:5	THR	  4.12	  0.71	  4.70	  0.23	  3.34	  0.22	  3.26	  0.00	  3.38	  0.27
J:6	GLN	  6.14	  1.44	  4.68	  0.61	  7.30	  0.61	  7.63	  0.34	  7.08	  0.66
J:7	SER	  4.03	  0.62	  4.45	  0.26	  3.21	  0.02	  3.19	  0.00	  3.23	  0.00
J:8	PRO	  4.05	  0.73	  4.51	  0.65	  3.43	  0.11	   nan	   nan	  3.43	  0.11
J:9	SER	  3.69	  0.43	  3.98	  0.12	  3.10	  0.08	  3.02	  0.00	  3.17	  0.00
J:10	SER	  3.81	  0.51	  4.08	  0.37	  3.27	  0.30	  2.97	  0.00	  3.58	  0.00
J:11	LEU	  4.21	  0.20	  4.25	  0.20	  4.17	  0.19	   nan	   nan	  4.17	  0.19
J:12	SER	  3.67	  0.41	  3.87	  0.36	  3.27	  0.08	  3.35	  0.00	  3.19	  0.00
J:13	ALA	  5.25	  0.70	  5.49	  0.58	  4.31	  0.00	   nan	   nan	  4.31	  0.00
J:14	SER	  4.40	  0.79	  4.92	  0.33	  3.35	  0.12	  3.23	  0.00	  3.46	  0.00
J:15	VAL	  3.66	  0.39	  3.84	  0.42	  3.42	  0.09	   nan	   nan	  3.42	  0.09
J:16	GLY	  3.59	  0.36	  3.59	  0.36	   nan	   nan	   nan	   nan	   nan	   nan
J:17	ASP	  4.04	  0.58	  4.50	  0.41	  3.58	  0.28	  3.36	  0.13	  3.80	  0.22
J:18	ARG	  3.53	  0.41	  3.86	  0.39	  3.33	  0.26	  3.12	  0.10	  3.50	  0.23
J:19	VAL	  4.69	  0.35	  4.71	  0.45	  4.67	  0.11	   nan	   nan	  4.67	  0.11
J:20	THR	  3.92	  0.54	  4.25	  0.40	  3.48	  0.35	  3.12	  0.00	  3.65	  0.30
J:21	ILE	  6.49	  0.85	  5.74	  0.17	  7.24	  0.53	   nan	   nan	  7.24	  0.53
J:22	THR	  4.51	  0.98	  5.32	  0.31	  3.44	  0.28	  3.17	  0.00	  3.57	  0.25
J:23	CYS	  5.86	  1.13	  5.11	  0.27	  7.37	  0.52	  7.88	  0.00	  6.85	  0.00
J:24	SER	  4.27	  0.71	  4.76	  0.13	  3.29	  0.23	  3.06	  0.00	  3.52	  0.00
J:25	ALA	  4.93	  0.90	  4.58	  0.63	  6.34	  0.00	   nan	   nan	  6.34	  0.00
J:26	SER	  3.62	  0.38	  3.74	  0.40	  3.39	  0.19	  3.58	  0.00	  3.20	  0.00
J:27	GLN	  3.93	  0.61	  4.39	  0.54	  3.55	  0.36	  3.28	  0.02	  3.73	  0.37
J:28	ASP	  3.70	  0.44	  3.95	  0.39	  3.44	  0.33	  3.46	  0.46	  3.43	  0.12
J:29	ILE	  6.44	  1.26	  5.39	  0.13	  7.49	  0.98	   nan	   nan	  7.49	  0.98
J:30	SER	  4.08	  0.57	  4.44	  0.29	  3.36	  0.25	  3.11	  0.00	  3.62	  0.00
J:31	ASN	  4.50	  0.96	  5.26	  0.70	  3.75	  0.45	  3.56	  0.54	  3.94	  0.21
J:32	TYR	  5.50	  1.81	  7.62	  1.02	  4.44	  1.00	  3.13	  0.00	  4.63	  0.93
J:33	LEU	 10.27	  0.70	  9.98	  0.81	 10.55	  0.40	   nan	   nan	 10.55	  0.40
J:34	ASN	 11.62	  0.81	 12.23	  0.25	 11.02	  0.72	 10.80	  0.89	 11.24	  0.38
J:35	TRP	 10.73	  1.12	 11.24	  1.19	 10.52	  1.01	  9.68	  0.00	 10.62	  1.02
J:36	TYR	  9.25	  0.95	  9.59	  0.64	  9.09	  1.03	  9.81	  0.00	  8.98	  1.07
J:37	GLN	  6.46	  0.96	  7.05	  0.78	  5.99	  0.82	  5.25	  0.46	  6.48	  0.60
J:38	GLN	  5.18	  0.89	  5.93	  0.62	  4.59	  0.55	  4.12	  0.05	  4.90	  0.50
J:39	LYS	  4.48	  0.55	  4.82	  0.46	  4.20	  0.45	  3.40	  0.00	  4.40	  0.23
J:40	PRO	  3.64	  0.30	  3.63	  0.30	  3.64	  0.29	   nan	   nan	  3.64	  0.29
J:41	GLY	  3.35	  0.22	  3.35	  0.22	   nan	   nan	   nan	   nan	   nan	   nan
J:42	LYS	  3.74	  0.52	  4.27	  0.18	  3.31	  0.21	  3.05	  0.00	  3.38	  0.18
J:43	ALA	  3.93	  0.29	  3.98	  0.31	  3.76	  0.00	   nan	   nan	  3.76	  0.00
J:44	PRO	  5.71	  1.06	  4.89	  0.57	  6.81	  0.34	   nan	   nan	  6.81	  0.34
J:45	LYS	  4.16	  0.89	  5.05	  0.59	  3.46	  0.17	  3.29	  0.00	  3.50	  0.17
J:46	VAL	  5.52	  0.77	  5.19	  0.45	  5.95	  0.89	   nan	   nan	  5.95	  0.89
J:47	LEU	  7.60	  0.71	  7.36	  0.34	  7.84	  0.88	   nan	   nan	  7.84	  0.88
J:48	ILE	  7.84	  1.03	  8.73	  0.60	  6.95	  0.42	   nan	   nan	  6.95	  0.42
J:49	TYR	  5.92	  1.46	  7.27	  0.66	  5.25	  1.27	  3.32	  0.00	  5.53	  1.11
J:50	PHE	  4.79	  1.26	  6.06	  0.86	  4.07	  0.78	   nan	   nan	  4.07	  0.78
J:51	THR	  5.76	  0.58	  6.13	  0.32	  5.27	  0.46	  5.86	  0.00	  4.97	  0.22
J:52	SER	  3.90	  0.73	  4.22	  0.70	  3.26	  0.16	  3.11	  0.00	  3.42	  0.00
J:53	SER	  4.18	  0.65	  4.50	  0.53	  3.53	  0.26	  3.27	  0.00	  3.79	  0.00
J:54	LEU	  3.81	  0.51	  3.77	  0.36	  3.85	  0.63	   nan	   nan	  3.85	  0.63
J:55	HIS	  4.31	  0.62	  4.48	  0.35	  4.19	  0.73	  3.67	  0.16	  4.45	  0.77
J:56	SER	  3.50	  0.31	  3.71	  0.11	  3.08	  0.04	  3.04	  0.00	  3.12	  0.00
J:57	GLY	  3.27	  0.20	  3.27	  0.20	   nan	   nan	   nan	   nan	   nan	   nan
J:58	VAL	  4.71	  0.87	  4.07	  0.37	  5.57	  0.52	   nan	   nan	  5.57	  0.52
J:59	PRO	  4.08	  0.60	  4.40	  0.60	  3.66	  0.23	   nan	   nan	  3.66	  0.23
J:60	SER	  3.54	  0.42	  3.73	  0.37	  3.15	  0.17	  2.98	  0.00	  3.33	  0.00
J:61	ARG	  4.18	  0.44	  4.39	  0.37	  4.07	  0.43	  4.02	  0.63	  4.10	  0.17
J:62	PHE	  6.27	  1.24	  4.94	  0.62	  7.04	  0.76	   nan	   nan	  7.04	  0.76
J:63	SER	  4.30	  0.80	  4.81	  0.44	  3.28	  0.01	  3.29	  0.00	  3.27	  0.00
J:64	GLY	  4.32	  0.59	  4.32	  0.59	   nan	   nan	   nan	   nan	   nan	   nan
J:65	SER	  4.04	  0.68	  4.47	  0.39	  3.19	  0.02	  3.16	  0.00	  3.21	  0.00
J:66	GLY	  3.78	  0.14	  3.78	  0.14	   nan	   nan	   nan	   nan	   nan	   nan
J:67	SER	  3.76	  0.45	  3.99	  0.35	  3.29	  0.19	  3.11	  0.00	  3.48	  0.00
J:68	GLY	  4.30	  0.63	  4.30	  0.63	   nan	   nan	   nan	   nan	   nan	   nan
J:69	THR	  4.27	  0.74	  4.81	  0.48	  3.56	  0.30	  3.25	  0.00	  3.72	  0.24
J:70	ASP	  3.77	  0.58	  4.29	  0.34	  3.26	  0.16	  3.17	  0.18	  3.35	  0.06
J:71	PHE	  6.18	  1.04	  4.84	  0.18	  6.95	  0.22	   nan	   nan	  6.95	  0.22
J:72	THR	  4.48	  0.87	  5.22	  0.17	  3.50	  0.22	  3.22	  0.00	  3.64	  0.12
J:73	LEU	  7.86	  1.76	  6.33	  0.27	  9.40	  1.18	   nan	   nan	  9.40	  1.18
J:74	THR	  5.09	  0.96	  5.87	  0.25	  4.04	  0.36	  3.53	  0.00	  4.30	  0.07
J:75	ILE	  7.57	  0.96	  6.71	  0.33	  8.42	  0.54	   nan	   nan	  8.42	  0.54
J:76	SER	  4.06	  0.75	  4.43	  0.65	  3.32	  0.17	  3.15	  0.00	  3.49	  0.00
J:77	SER	  4.39	  0.76	  4.89	  0.33	  3.38	  0.09	  3.30	  0.00	  3.47	  0.00
J:78	LEU	  6.90	  1.06	  5.98	  0.59	  7.81	  0.49	   nan	   nan	  7.81	  0.49
J:79	GLN	  4.69	  1.24	  5.93	  0.54	  3.69	  0.57	  3.20	  0.14	  4.02	  0.52
J:80	PRO	  4.83	  1.03	  5.61	  0.57	  3.79	  0.38	   nan	   nan	  3.79	  0.38
J:81	GLU	  4.01	  0.82	  4.90	  0.27	  3.31	  0.17	  3.18	  0.16	  3.39	  0.11
J:82	ASP	  6.70	  1.01	  7.19	  0.98	  6.20	  0.76	  5.72	  0.66	  6.68	  0.51
J:83	PHE	  6.47	  0.85	  7.08	  0.59	  6.12	  0.77	   nan	   nan	  6.12	  0.77
J:84	ALA	  7.03	  0.32	  6.94	  0.30	  7.37	  0.00	   nan	   nan	  7.37	  0.00
J:85	THR	  5.42	  1.09	  6.31	  0.45	  4.24	  0.26	  3.92	  0.00	  4.41	  0.14
J:86	TYR	  9.10	  1.28	  7.66	  0.53	  9.82	  0.88	  8.09	  0.00	 10.06	  0.63
J:87	TYR	  7.12	  2.09	  9.54	  1.13	  5.92	  1.25	  3.84	  0.00	  6.21	  1.04
J:88	CYS	  9.29	  1.05	  9.20	  1.07	  9.48	  1.00	  8.48	  0.00	 10.48	  0.00
J:89	GLN	 11.06	  0.57	 10.93	  0.48	 11.17	  0.61	 11.68	  0.20	 10.83	  0.54
J:90	GLN	  9.10	  1.15	 10.15	  0.47	  8.26	  0.78	  7.59	  0.11	  8.71	  0.71
J:91	TYR	  7.81	  1.10	  7.45	  1.25	  7.99	  0.97	  6.81	  0.00	  8.16	  0.92
J:92	SER	  4.47	  0.89	  4.66	  0.96	  4.11	  0.58	  3.53	  0.00	  4.69	  0.00
J:93	THR	  4.32	  0.78	  4.87	  0.54	  3.58	  0.27	  3.94	  0.00	  3.40	  0.12
J:94	VAL	  4.07	  0.59	  4.09	  0.48	  4.04	  0.71	   nan	   nan	  4.04	  0.71
J:95	PRO	  5.25	  0.82	  5.64	  0.79	  4.73	  0.49	   nan	   nan	  4.73	  0.49
J:96	TRP	  7.83	  1.29	  6.50	  0.80	  8.36	  1.03	  9.75	  0.00	  8.21	  0.97
J:97	THR	  5.03	  0.82	  5.51	  0.60	  4.38	  0.60	  5.19	  0.00	  3.98	  0.24
J:98	PHE	  5.75	  1.39	  4.43	  0.43	  6.50	  1.16	   nan	   nan	  6.50	  1.16
J:99	GLY	  4.94	  0.34	  4.94	  0.34	   nan	   nan	   nan	   nan	   nan	   nan
J:100	GLN	  3.73	  0.39	  3.93	  0.33	  3.56	  0.35	  3.83	  0.27	  3.39	  0.27
J:101	GLY	  4.64	  0.29	  4.64	  0.29	   nan	   nan	   nan	   nan	   nan	   nan
J:102	THR	  6.10	  0.72	  5.51	  0.31	  6.88	  0.08	  6.92	  0.00	  6.86	  0.09
J:103	LYS	  4.48	  0.92	  5.40	  0.45	  3.74	  0.38	  3.28	  0.00	  3.86	  0.34
J:104	VAL	  7.76	  0.59	  7.28	  0.31	  8.38	  0.08	   nan	   nan	  8.38	  0.08
J:105	GLU	  4.79	  0.90	  5.75	  0.17	  4.03	  0.34	  3.95	  0.51	  4.08	  0.06
J:106	ILE	  6.61	  0.68	  6.32	  0.40	  6.90	  0.76	   nan	   nan	  6.90	  0.76
J:107	LYS	  4.09	  0.82	  4.72	  0.71	  3.59	  0.50	  3.15	  0.00	  3.70	  0.51
J:108	ARG	  3.96	  0.52	  3.83	  0.33	  4.03	  0.59	  3.67	  0.44	  4.31	  0.53
J:109	THR	  3.87	  0.66	  4.33	  0.48	  3.25	  0.22	  3.26	  0.00	  3.25	  0.26
J:110	VAL	  3.69	  0.41	  3.84	  0.42	  3.50	  0.29	   nan	   nan	  3.50	  0.29
J:111	ALA	  4.22	  0.57	  4.38	  0.52	  3.57	  0.00	   nan	   nan	  3.57	  0.00
J:112	ALA	  3.75	  0.35	  3.85	  0.32	  3.34	  0.00	   nan	   nan	  3.34	  0.00
J:113	PRO	  5.15	  0.93	  4.49	  0.67	  6.03	  0.24	   nan	   nan	  6.03	  0.24
J:114	SER	  4.03	  0.68	  4.39	  0.52	  3.30	  0.22	  3.09	  0.00	  3.52	  0.00
J:115	VAL	  4.86	  0.80	  4.33	  0.50	  5.57	  0.53	   nan	   nan	  5.57	  0.53
J:116	PHE	  4.62	  0.81	  5.29	  0.68	  4.23	  0.60	   nan	   nan	  4.23	  0.60
J:117	ILE	  5.43	  0.86	  5.07	  0.44	  5.79	  1.01	   nan	   nan	  5.79	  1.01
J:118	PHE	  6.79	  0.43	  6.67	  0.46	  6.86	  0.40	   nan	   nan	  6.86	  0.40
J:119	PRO	  5.14	  0.59	  5.64	  0.10	  4.48	  0.20	   nan	   nan	  4.48	  0.20
J:120	PRO	  5.93	  0.64	  5.60	  0.64	  6.37	  0.28	   nan	   nan	  6.37	  0.28
J:121	SER	  4.61	  0.53	  4.72	  0.52	  4.39	  0.47	  4.87	  0.00	  3.92	  0.00
J:122	ASP	  3.53	  0.29	  3.79	  0.13	  3.27	  0.14	  3.16	  0.06	  3.39	  0.10
J:123	GLU	  3.94	  0.69	  4.47	  0.71	  3.51	  0.21	  3.49	  0.25	  3.52	  0.18
J:124	GLN	  6.02	  0.52	  5.96	  0.29	  6.07	  0.65	  6.07	  1.00	  6.07	  0.20
J:125	LEU	  5.29	  0.67	  5.62	  0.53	  4.95	  0.63	   nan	   nan	  4.95	  0.63
J:126	LYS	  3.62	  0.52	  4.02	  0.47	  3.30	  0.28	  2.96	  0.00	  3.38	  0.25
J:127	SER	  3.75	  0.43	  3.82	  0.50	  3.60	  0.10	  3.50	  0.00	  3.70	  0.00
J:128	GLY	  3.61	  0.26	  3.61	  0.26	   nan	   nan	   nan	   nan	   nan	   nan
J:129	THR	  4.77	  1.08	  5.51	  0.79	  3.78	  0.44	  4.06	  0.00	  3.64	  0.48
J:130	ALA	  6.31	  0.60	  6.08	  0.41	  7.27	  0.00	   nan	   nan	  7.27	  0.00
J:131	SER	  7.33	  1.31	  8.02	  0.99	  5.97	  0.62	  5.34	  0.00	  6.59	  0.00
J:132	VAL	  9.86	  0.42	 10.00	  0.41	  9.67	  0.36	   nan	   nan	  9.67	  0.36
J:133	VAL	 10.48	  0.56	 10.20	  0.57	 10.84	  0.27	   nan	   nan	 10.84	  0.27
J:134	CYS	  9.37	  0.62	  9.67	  0.45	  8.76	  0.46	  8.30	  0.00	  9.23	  0.00
J:135	LEU	  8.59	  0.72	  8.45	  0.79	  8.73	  0.61	   nan	   nan	  8.73	  0.61
J:136	LEU	  8.58	  0.42	  8.46	  0.44	  8.69	  0.36	   nan	   nan	  8.69	  0.36
J:137	ASN	  5.40	  0.79	  5.71	  0.79	  5.09	  0.65	  5.01	  0.91	  5.17	  0.03
J:138	ASN	  4.17	  0.68	  4.56	  0.67	  3.78	  0.41	  3.73	  0.56	  3.83	  0.14
J:139	PHE	  6.76	  1.22	  5.46	  0.54	  7.50	  0.81	   nan	   nan	  7.50	  0.81
J:140	TYR	  5.45	  1.00	  6.36	  0.21	  4.99	  0.92	  3.63	  0.00	  5.18	  0.82
J:141	PRO	  5.00	  0.78	  5.52	  0.58	  4.30	  0.36	   nan	   nan	  4.30	  0.36
J:142	ARG	  3.91	  0.57	  4.59	  0.14	  3.52	  0.28	  3.30	  0.24	  3.68	  0.18
J:143	GLU	  3.71	  0.43	  4.14	  0.22	  3.37	  0.20	  3.20	  0.03	  3.49	  0.17
J:144	ALA	  3.94	  0.70	  3.63	  0.35	  5.19	  0.00	   nan	   nan	  5.19	  0.00
J:145	LYS	  3.72	  0.63	  4.31	  0.50	  3.24	  0.13	  3.01	  0.00	  3.30	  0.07
J:146	VAL	  4.68	  0.85	  4.04	  0.42	  5.55	  0.38	   nan	   nan	  5.55	  0.38
J:147	GLN	  4.30	  0.76	  4.78	  0.73	  3.92	  0.55	  4.17	  0.70	  3.75	  0.33
J:148	TRP	  7.09	  1.48	  5.74	  0.52	  7.62	  1.40	  6.04	  0.00	  7.80	  1.37
J:149	LYS	  4.86	  1.07	  5.92	  0.33	  4.00	  0.59	  3.08	  0.00	  4.23	  0.42
J:150	VAL	  5.97	  0.72	  5.72	  0.78	  6.30	  0.46	   nan	   nan	  6.30	  0.46
J:151	ASP	  3.96	  0.57	  4.26	  0.65	  3.65	  0.23	  3.62	  0.32	  3.69	  0.04
J:152	ASN	  3.74	  0.54	  4.12	  0.48	  3.35	  0.25	  3.16	  0.22	  3.54	  0.02
J:153	ALA	  4.06	  0.66	  4.31	  0.48	  3.07	  0.00	   nan	   nan	  3.07	  0.00
J:154	LEU	  3.79	  0.48	  4.03	  0.46	  3.55	  0.36	   nan	   nan	  3.55	  0.36
J:155	GLN	  4.13	  0.67	  4.22	  0.45	  4.07	  0.79	  3.31	  0.16	  4.58	  0.62
J:156	SER	  3.56	  0.42	  3.80	  0.29	  3.08	  0.09	  2.99	  0.00	  3.16	  0.00
J:157	GLY	  3.34	  0.19	  3.34	  0.19	   nan	   nan	   nan	   nan	   nan	   nan
J:158	ASN	  4.16	  0.39	  4.19	  0.16	  4.12	  0.53	  4.23	  0.70	  4.02	  0.21
J:159	SER	  4.05	  0.49	  4.00	  0.54	  4.15	  0.35	  3.81	  0.00	  4.50	  0.00
J:160	GLN	  4.10	  0.60	  4.56	  0.49	  3.74	  0.41	  3.81	  0.54	  3.70	  0.29
J:161	GLU	  3.87	  0.57	  4.14	  0.50	  3.65	  0.53	  3.26	  0.33	  3.91	  0.47
J:162	SER	  4.69	  0.48	  4.78	  0.55	  4.51	  0.12	  4.39	  0.00	  4.63	  0.00
J:163	VAL	  3.96	  0.44	  4.04	  0.31	  3.84	  0.55	   nan	   nan	  3.84	  0.55
J:164	THR	  4.67	  0.45	  4.96	  0.25	  4.28	  0.37	  3.78	  0.00	  4.53	  0.12
J:165	GLU	  3.83	  0.40	  4.09	  0.20	  3.62	  0.40	  3.29	  0.32	  3.85	  0.27
J:166	GLN	  5.94	  1.17	  4.74	  0.60	  6.91	  0.30	  6.73	  0.19	  7.03	  0.30
J:167	ASP	  4.51	  0.74	  4.99	  0.63	  4.02	  0.47	  3.73	  0.44	  4.31	  0.28
J:168	SER	  4.36	  0.56	  4.68	  0.28	  3.72	  0.39	  3.33	  0.00	  4.11	  0.00
J:169	LYS	  3.61	  0.54	  3.95	  0.61	  3.33	  0.25	  3.02	  0.00	  3.41	  0.22
J:170	ASP	  3.89	  0.43	  4.05	  0.20	  3.74	  0.53	  3.88	  0.67	  3.59	  0.23
J:171	SER	  5.67	  0.69	  6.02	  0.57	  4.97	  0.22	  4.75	  0.00	  5.20	  0.00
J:172	THR	  5.68	  1.00	  6.48	  0.28	  4.62	  0.53	  4.98	  0.00	  4.45	  0.57
J:173	TYR	  6.54	  0.99	  7.31	  0.07	  6.16	  1.02	  4.45	  0.00	  6.41	  0.84
J:174	SER	  7.22	  0.54	  7.55	  0.32	  6.56	  0.15	  6.41	  0.00	  6.72	  0.00
J:175	LEU	  7.35	  1.52	  8.70	  0.62	  6.01	  0.79	   nan	   nan	  6.01	  0.79
J:176	SER	  7.90	  0.67	  7.84	  0.59	  8.01	  0.79	  7.22	  0.00	  8.80	  0.00
J:177	SER	  7.70	  1.06	  8.25	  0.80	  6.59	  0.51	  6.08	  0.00	  7.09	  0.00
J:178	THR	  7.24	  0.59	  6.97	  0.61	  7.60	  0.28	  7.99	  0.00	  7.40	  0.02
J:179	LEU	  7.18	  0.49	  7.02	  0.38	  7.35	  0.53	   nan	   nan	  7.35	  0.53
J:180	THR	  4.23	  0.60	  4.45	  0.62	  3.92	  0.41	  4.44	  0.00	  3.66	  0.21
J:181	LEU	  4.88	  1.02	  3.99	  0.18	  5.77	  0.66	   nan	   nan	  5.77	  0.66
J:182	SER	  4.10	  0.87	  4.54	  0.74	  3.20	  0.05	  3.15	  0.00	  3.25	  0.00
J:183	LYS	  4.14	  0.69	  4.82	  0.26	  3.59	  0.34	  3.15	  0.00	  3.70	  0.29
J:184	ALA	  3.75	  0.34	  3.90	  0.15	  3.12	  0.00	   nan	   nan	  3.12	  0.00
J:185	ASP	  4.11	  0.87	  4.83	  0.66	  3.39	  0.23	  3.18	  0.01	  3.61	  0.12
J:186	TYR	  6.12	  0.79	  6.53	  0.31	  5.91	  0.87	  5.27	  0.00	  6.00	  0.90
J:187	GLU	  3.96	  0.77	  4.45	  0.89	  3.58	  0.29	  3.43	  0.32	  3.67	  0.23
J:188	LYS	  3.55	  0.44	  3.72	  0.45	  3.42	  0.38	  3.09	  0.00	  3.50	  0.39
J:189	HIS	  4.35	  0.67	  4.70	  0.11	  4.12	  0.78	  3.80	  0.69	  4.28	  0.78
J:190	LYS	  4.67	  1.12	  5.72	  0.74	  3.82	  0.47	  3.16	  0.00	  3.98	  0.38
J:191	VAL	  4.58	  0.93	  5.35	  0.20	  3.55	  0.33	   nan	   nan	  3.55	  0.33
J:192	TYR	  7.47	  1.02	  6.14	  0.34	  8.13	  0.43	  7.59	  0.00	  8.21	  0.40
J:193	ALA	  5.30	  0.99	  5.72	  0.60	  3.63	  0.00	   nan	   nan	  3.63	  0.00
J:194	CYS	  7.06	  0.84	  6.51	  0.37	  8.15	  0.27	  7.88	  0.00	  8.42	  0.00
J:195	GLU	  5.14	  1.35	  6.50	  0.35	  4.06	  0.75	  3.36	  0.20	  4.52	  0.60
J:196	VAL	  7.29	  0.42	  7.14	  0.45	  7.50	  0.23	   nan	   nan	  7.50	  0.23
J:197	THR	  4.66	  0.84	  5.15	  0.68	  4.02	  0.54	  4.52	  0.00	  3.76	  0.50
J:198	HIS	  5.38	  1.02	  4.20	  0.29	  6.16	  0.37	  6.19	  0.50	  6.15	  0.28
J:199	GLN	  3.63	  0.31	  3.76	  0.31	  3.52	  0.28	  3.26	  0.07	  3.70	  0.21
J:200	GLY	  4.07	  0.45	  4.07	  0.45	   nan	   nan	   nan	   nan	   nan	   nan
J:201	LEU	  4.47	  0.47	  4.46	  0.30	  4.48	  0.59	   nan	   nan	  4.48	  0.59
J:202	SER	  3.37	  0.35	  3.55	  0.30	  3.01	  0.07	  2.94	  0.00	  3.09	  0.00
J:203	SER	  3.74	  0.46	  4.04	  0.18	  3.12	  0.11	  3.01	  0.00	  3.23	  0.00
J:204	PRO	  3.72	  0.52	  3.99	  0.47	  3.38	  0.35	   nan	   nan	  3.38	  0.35
J:205	VAL	  4.03	  0.57	  4.43	  0.37	  3.49	  0.28	   nan	   nan	  3.49	  0.28
J:206	THR	  3.68	  0.37	  3.88	  0.37	  3.42	  0.15	  3.26	  0.00	  3.50	  0.11
J:207	LYS	  4.12	  0.68	  4.65	  0.38	  3.69	  0.56	  3.05	  0.00	  3.85	  0.51
J:208	SER	  3.68	  0.50	  3.80	  0.48	  3.43	  0.46	  2.97	  0.00	  3.88	  0.00
J:209	PHE	  4.95	  0.80	  4.62	  0.61	  5.14	  0.84	   nan	   nan	  5.14	  0.84
J:210	ASN	  4.20	  0.76	  4.80	  0.44	  3.60	  0.49	  3.19	  0.07	  4.02	  0.35
J:211	ARG	  4.29	  0.75	  4.66	  0.81	  4.07	  0.61	  3.59	  0.34	  4.43	  0.52
J:212	GLY	  3.45	  0.30	  3.45	  0.30	   nan	   nan	   nan	   nan	   nan	   nan
J:213	GLU	  3.35	  0.27	  3.45	  0.34	  3.27	  0.13	  3.13	  0.07	  3.36	  0.08
K:1	GLU	  3.45	  0.36	  3.66	  0.44	  3.29	  0.12	  3.20	  0.02	  3.35	  0.12
K:2	VAL	  3.96	  0.45	  4.01	  0.38	  3.91	  0.52	   nan	   nan	  3.91	  0.52
K:3	GLN	  4.15	  0.75	  4.83	  0.42	  3.61	  0.45	  3.13	  0.03	  3.93	  0.28
K:4	LEU	  5.63	  1.13	  4.60	  0.48	  6.65	  0.46	   nan	   nan	  6.65	  0.46
K:5	VAL	  4.11	  0.70	  4.69	  0.22	  3.34	  0.23	   nan	   nan	  3.34	  0.23
K:6	GLU	  6.04	  1.49	  4.58	  0.75	  7.20	  0.71	  7.69	  0.53	  6.88	  0.62
K:7	SER	  4.05	  0.66	  4.46	  0.39	  3.23	  0.01	  3.24	  0.00	  3.21	  0.00
K:8	GLY	  3.80	  0.21	  3.80	  0.21	   nan	   nan	   nan	   nan	   nan	   nan
K:9	GLY	  3.98	  0.52	  3.98	  0.52	   nan	   nan	   nan	   nan	   nan	   nan
K:10	GLY	  4.14	  0.54	  4.14	  0.54	   nan	   nan	   nan	   nan	   nan	   nan
K:11	LEU	  4.12	  0.59	  3.77	  0.37	  4.47	  0.56	   nan	   nan	  4.47	  0.56
K:12	VAL	  4.62	  0.63	  4.55	  0.52	  4.72	  0.75	   nan	   nan	  4.72	  0.75
K:13	GLN	  3.90	  0.63	  4.48	  0.41	  3.43	  0.30	  3.09	  0.06	  3.66	  0.13
K:14	PRO	  3.72	  0.50	  3.92	  0.50	  3.47	  0.37	   nan	   nan	  3.47	  0.37
K:15	GLY	  3.44	  0.25	  3.44	  0.25	   nan	   nan	   nan	   nan	   nan	   nan
K:16	GLY	  4.27	  0.50	  4.27	  0.50	   nan	   nan	   nan	   nan	   nan	   nan
K:17	SER	  3.70	  0.38	  3.85	  0.39	  3.41	  0.08	  3.34	  0.00	  3.49	  0.00
K:18	LEU	  4.43	  0.59	  4.42	  0.42	  4.45	  0.72	   nan	   nan	  4.45	  0.72
K:19	ARG	  3.82	  0.44	  4.05	  0.35	  3.68	  0.43	  3.36	  0.31	  3.92	  0.33
K:20	LEU	  6.85	  1.11	  5.93	  0.21	  7.78	  0.84	   nan	   nan	  7.78	  0.84
K:21	SER	  4.83	  0.87	  5.42	  0.21	  3.64	  0.24	  3.40	  0.00	  3.88	  0.00
K:22	CYS	  6.61	  0.91	  5.99	  0.28	  7.85	  0.21	  8.06	  0.00	  7.64	  0.00
K:23	ALA	  4.23	  0.57	  4.51	  0.17	  3.12	  0.00	   nan	   nan	  3.12	  0.00
K:24	ALA	  4.73	  0.85	  4.42	  0.65	  5.97	  0.00	   nan	   nan	  5.97	  0.00
K:25	SER	  4.06	  0.64	  4.44	  0.45	  3.32	  0.10	  3.42	  0.00	  3.22	  0.00
K:26	GLY	  3.41	  0.11	  3.41	  0.11	   nan	   nan	   nan	   nan	   nan	   nan
K:27	TYR	  5.15	  1.41	  3.69	  0.13	  5.88	  1.18	  7.85	  0.00	  5.60	  0.98
K:28	THR	  3.93	  0.70	  4.34	  0.64	  3.38	  0.25	  3.08	  0.00	  3.52	  0.18
K:29	PHE	  6.03	  1.06	  5.51	  0.89	  6.33	  1.02	   nan	   nan	  6.33	  1.02
K:30	THR	  4.52	  0.90	  5.26	  0.29	  3.53	  0.25	  3.26	  0.00	  3.66	  0.19
K:31	ASN	  5.54	  1.34	  6.72	  0.66	  4.36	  0.58	  3.90	  0.29	  4.82	  0.41
K:32	TYR	  6.43	  2.02	  8.85	  0.79	  5.22	  1.19	  3.51	  0.00	  5.46	  1.07
K:33	GLY	 11.11	  0.45	 11.11	  0.45	   nan	   nan	   nan	   nan	   nan	   nan
K:34	MET	 11.96	  0.90	 12.61	  0.33	 11.32	  0.83	 11.04	  0.00	 11.41	  0.94
K:35	ASN	 12.98	  0.49	 13.44	  0.07	 12.52	  0.23	 12.30	  0.03	 12.75	  0.02
K:36	TRP	 11.49	  1.05	 12.10	  0.99	 11.25	  0.98	 10.53	  0.00	 11.33	  1.00
K:37	VAL	  9.68	  0.80	  9.93	  0.82	  9.36	  0.65	   nan	   nan	  9.36	  0.65
K:38	ARG	  5.90	  1.33	  6.95	  0.86	  5.30	  1.18	  4.45	  0.75	  5.94	  1.02
K:39	GLN	  4.82	  0.83	  5.50	  0.67	  4.29	  0.48	  3.94	  0.09	  4.52	  0.49
K:40	ALA	  4.47	  0.38	  4.63	  0.23	  3.84	  0.00	   nan	   nan	  3.84	  0.00
K:41	PRO	  3.43	  0.30	  3.51	  0.30	  3.32	  0.26	   nan	   nan	  3.32	  0.26
K:42	GLY	  3.26	  0.22	  3.26	  0.22	   nan	   nan	   nan	   nan	   nan	   nan
K:43	LYS	  3.56	  0.43	  3.96	  0.11	  3.24	  0.29	  2.90	  0.00	  3.32	  0.27
K:44	GLY	  3.85	  0.31	  3.85	  0.31	   nan	   nan	   nan	   nan	   nan	   nan
K:45	LEU	  5.56	  1.49	  4.18	  0.51	  6.95	  0.59	   nan	   nan	  6.95	  0.59
K:46	GLU	  4.21	  0.96	  5.08	  0.80	  3.50	  0.19	  3.30	  0.08	  3.64	  0.10
K:47	TRP	  7.38	  1.28	  6.14	  0.53	  7.88	  1.15	 10.05	  0.00	  7.64	  0.95
K:48	VAL	  8.57	  0.56	  8.15	  0.36	  9.12	  0.18	   nan	   nan	  9.12	  0.18
K:49	GLY	  9.51	  1.09	  9.51	  1.09	   nan	   nan	   nan	   nan	   nan	   nan
K:50	TRP	  8.28	  0.86	  8.57	  0.74	  8.17	  0.88	  7.01	  0.00	  8.30	  0.83
K:51	ILE	  7.73	  1.40	  8.76	  0.48	  6.70	  1.26	   nan	   nan	  6.70	  1.26
K:52	ASN	  6.71	  0.72	  7.09	  0.74	  6.32	  0.43	  6.06	  0.46	  6.59	  0.16
K:53	THR	  6.37	  1.28	  5.59	  1.13	  7.40	  0.52	  7.45	  0.00	  7.38	  0.63
K:54	TYR	  3.99	  0.67	  4.24	  0.78	  3.87	  0.57	  3.35	  0.00	  3.94	  0.57
K:55	THR	  3.76	  0.42	  3.79	  0.42	  3.71	  0.43	  4.31	  0.00	  3.41	  0.10
K:56	GLY	  3.85	  0.18	  3.85	  0.18	   nan	   nan	   nan	   nan	   nan	   nan
K:57	GLU	  4.02	  0.77	  4.74	  0.57	  3.44	  0.27	  3.28	  0.31	  3.54	  0.17
K:58	PRO	  4.22	  0.60	  4.40	  0.55	  3.98	  0.57	   nan	   nan	  3.98	  0.57
K:59	THR	  4.62	  0.64	  4.98	  0.56	  4.13	  0.33	  4.18	  0.00	  4.10	  0.40
K:60	TYR	  4.57	  0.72	  4.12	  0.48	  4.79	  0.71	  3.80	  0.00	  4.94	  0.65
K:61	ALA	  5.16	  0.39	  4.99	  0.21	  5.85	  0.00	   nan	   nan	  5.85	  0.00
K:62	ALA	  3.60	  0.37	  3.75	  0.25	  3.00	  0.00	   nan	   nan	  3.00	  0.00
K:63	ASP	  3.60	  0.35	  3.81	  0.34	  3.38	  0.21	  3.29	  0.25	  3.48	  0.08
K:64	PHE	  5.50	  0.52	  5.52	  0.37	  5.49	  0.59	   nan	   nan	  5.49	  0.59
K:65	LYS	  3.74	  0.57	  4.26	  0.46	  3.32	  0.17	  3.05	  0.00	  3.39	  0.11
K:66	ARG	  3.42	  0.28	  3.63	  0.30	  3.30	  0.17	  3.18	  0.02	  3.39	  0.18
K:67	ARG	  4.70	  0.35	  4.63	  0.16	  4.74	  0.41	  4.71	  0.60	  4.76	  0.16
K:68	PHE	  6.63	  1.30	  5.08	  0.52	  7.51	  0.57	   nan	   nan	  7.51	  0.57
K:69	THR	  4.34	  0.89	  5.08	  0.24	  3.35	  0.28	  3.18	  0.00	  3.44	  0.31
K:70	PHE	  6.70	  1.77	  4.70	  0.72	  7.85	  1.00	   nan	   nan	  7.85	  1.00
K:71	SER	  4.14	  0.75	  4.55	  0.58	  3.32	  0.06	  3.38	  0.00	  3.26	  0.00
K:72	LEU	  4.13	  0.61	  3.86	  0.53	  4.40	  0.56	   nan	   nan	  4.40	  0.56
K:73	ASP	  4.10	  0.65	  4.57	  0.55	  3.64	  0.34	  3.41	  0.26	  3.87	  0.23
K:74	THR	  3.79	  0.44	  4.03	  0.34	  3.46	  0.32	  3.01	  0.00	  3.68	  0.02
K:75	SER	  3.38	  0.31	  3.52	  0.30	  3.11	  0.01	  3.10	  0.00	  3.12	  0.00
K:76	LYS	  3.60	  0.41	  3.80	  0.37	  3.44	  0.36	  2.86	  0.00	  3.58	  0.25
K:77	SER	  4.55	  0.77	  5.02	  0.40	  3.60	  0.33	  3.27	  0.00	  3.93	  0.00
K:78	THR	  5.48	  1.12	  6.38	  0.46	  4.29	  0.40	  3.74	  0.00	  4.57	  0.11
K:79	ALA	  7.69	  0.74	  7.35	  0.32	  9.06	  0.00	   nan	   nan	  9.06	  0.00
K:80	TYR	  5.15	  1.20	  6.74	  0.12	  4.35	  0.52	  3.53	  0.00	  4.47	  0.45
K:81	LEU	  8.39	  1.54	  7.00	  0.39	  9.77	  0.85	   nan	   nan	  9.77	  0.85
K:82	GLN	  4.48	  1.10	  5.68	  0.28	  3.52	  0.22	  3.35	  0.00	  3.64	  0.21
K:83	MET	  7.80	  1.45	  6.45	  0.40	  9.15	  0.62	  9.36	  0.00	  9.08	  0.71
K:84	ASN	  4.20	  0.81	  4.95	  0.37	  3.44	  0.16	  3.36	  0.19	  3.52	  0.01
K:85	SER	  3.74	  0.44	  4.01	  0.21	  3.19	  0.21	  2.98	  0.00	  3.40	  0.00
K:86	LEU	  6.19	  1.50	  4.81	  0.62	  7.56	  0.59	   nan	   nan	  7.56	  0.59
K:87	ARG	  3.81	  0.74	  4.65	  0.57	  3.33	  0.21	  3.12	  0.07	  3.49	  0.14
K:88	ALA	  3.58	  0.33	  3.72	  0.21	  3.03	  0.00	   nan	   nan	  3.03	  0.00
K:89	GLU	  3.52	  0.34	  3.83	  0.22	  3.27	  0.18	  3.07	  0.01	  3.41	  0.10
K:90	ASP	  5.84	  0.63	  5.86	  0.58	  5.82	  0.68	  5.42	  0.65	  6.22	  0.42
K:91	THR	  4.31	  0.64	  4.81	  0.36	  3.64	  0.12	  3.69	  0.00	  3.62	  0.14
K:92	ALA	  5.79	  0.23	  5.73	  0.23	  6.02	  0.00	   nan	   nan	  6.02	  0.00
K:93	VAL	  5.01	  1.13	  5.85	  0.69	  3.89	  0.40	   nan	   nan	  3.89	  0.40
K:94	TYR	  8.76	  0.80	  8.10	  0.51	  9.10	  0.71	  7.70	  0.00	  9.30	  0.50
K:95	TYR	  7.29	  2.02	  9.64	  0.94	  6.12	  1.24	  4.06	  0.00	  6.41	  1.04
K:96	CYS	  9.35	  1.04	  9.12	  0.95	  9.80	  1.06	  8.74	  0.00	 10.86	  0.00
K:97	ALA	  9.25	  0.87	  9.50	  0.79	  8.24	  0.00	   nan	   nan	  8.24	  0.00
K:98	LYS	  6.93	  1.68	  8.39	  0.40	  5.76	  1.37	  3.82	  0.00	  6.24	  1.09
K:99	TYR	  9.90	  1.87	  7.59	  0.92	 11.06	  0.88	 10.35	  0.00	 11.16	  0.90
K:100	PRO	  5.99	  0.73	  5.88	  0.56	  6.13	  0.88	   nan	   nan	  6.13	  0.88
K:101	HIS	  4.34	  0.42	  4.72	  0.30	  4.09	  0.27	  4.23	  0.21	  4.02	  0.26
K:102	TYR	  7.18	  1.03	  6.06	  0.15	  7.74	  0.80	  8.17	  0.00	  7.68	  0.83
K:103	TYR	  3.61	  0.51	  4.08	  0.64	  3.37	  0.14	  3.05	  0.00	  3.42	  0.08
K:104	GLY	  3.56	  0.20	  3.56	  0.20	   nan	   nan	   nan	   nan	   nan	   nan
K:105	SER	  4.13	  0.80	  4.57	  0.61	  3.25	  0.04	  3.29	  0.00	  3.20	  0.00
K:106	SER	  5.40	  0.64	  5.03	  0.40	  6.13	  0.29	  6.43	  0.00	  5.84	  0.00
K:107	HIS	  5.97	  1.45	  7.43	  0.87	  5.00	  0.81	  4.60	  0.49	  5.20	  0.86
K:108	TRP	  9.16	  1.18	 10.12	  1.09	  8.77	  0.97	  7.10	  0.00	  8.96	  0.84
K:109	TYR	  7.40	  1.80	  9.28	  0.50	  6.46	  1.43	  4.12	  0.00	  6.79	  1.20
K:110	PHE	  9.52	  1.81	  7.53	  1.12	 10.66	  0.92	   nan	   nan	 10.66	  0.92
K:111	ASP	  4.49	  0.93	  4.75	  1.07	  4.24	  0.66	  4.14	  0.91	  4.33	  0.13
K:112	VAL	  4.51	  0.82	  5.06	  0.64	  3.79	  0.37	   nan	   nan	  3.79	  0.37
K:113	TRP	  5.60	  1.46	  4.29	  0.44	  6.13	  1.39	  5.19	  0.00	  6.24	  1.43
K:114	GLY	  4.60	  0.45	  4.60	  0.45	   nan	   nan	   nan	   nan	   nan	   nan
K:115	GLN	  3.75	  0.47	  3.82	  0.28	  3.69	  0.57	  3.98	  0.65	  3.49	  0.39
K:116	GLY	  4.53	  0.63	  4.53	  0.63	   nan	   nan	   nan	   nan	   nan	   nan
K:117	THR	  4.68	  0.65	  4.69	  0.45	  4.67	  0.84	  5.76	  0.00	  4.12	  0.39
K:118	LEU	  4.06	  0.43	  4.34	  0.43	  3.79	  0.18	   nan	   nan	  3.79	  0.18
K:119	VAL	  6.85	  0.79	  6.21	  0.25	  7.70	  0.34	   nan	   nan	  7.70	  0.34
K:120	THR	  5.25	  0.74	  5.80	  0.38	  4.51	  0.36	  4.08	  0.00	  4.73	  0.24
K:121	VAL	  5.15	  0.94	  4.60	  0.71	  5.87	  0.68	   nan	   nan	  5.87	  0.68
K:122	SER	  4.29	  0.60	  4.63	  0.41	  3.62	  0.23	  3.39	  0.00	  3.86	  0.00
K:123	SER	  3.66	  0.51	  3.91	  0.44	  3.17	  0.17	  3.00	  0.00	  3.34	  0.00
K:124	ALA	  4.01	  0.34	  4.15	  0.23	  3.46	  0.00	   nan	   nan	  3.46	  0.00
K:125	SER	  3.69	  0.44	  3.97	  0.17	  3.12	  0.17	  2.95	  0.00	  3.29	  0.00
K:126	THR	  3.93	  0.48	  4.03	  0.50	  3.81	  0.41	  3.30	  0.00	  4.07	  0.23
K:127	LYS	  3.89	  0.65	  4.43	  0.57	  3.46	  0.26	  3.51	  0.00	  3.44	  0.29
K:128	GLY	  3.81	  0.22	  3.81	  0.22	   nan	   nan	   nan	   nan	   nan	   nan
K:129	PRO	  5.11	  0.83	  4.54	  0.53	  5.88	  0.45	   nan	   nan	  5.88	  0.45
K:130	SER	  4.44	  0.87	  4.92	  0.61	  3.48	  0.34	  3.13	  0.00	  3.82	  0.00
K:131	VAL	  5.30	  0.64	  4.91	  0.42	  5.82	  0.49	   nan	   nan	  5.82	  0.49
K:132	PHE	  5.94	  0.84	  6.59	  0.44	  5.57	  0.79	   nan	   nan	  5.57	  0.79
K:133	PRO	  4.92	  0.72	  5.51	  0.15	  4.13	  0.34	   nan	   nan	  4.13	  0.34
K:134	LEU	  7.82	  1.36	  6.59	  0.25	  9.06	  0.79	   nan	   nan	  9.06	  0.79
K:135	ALA	  4.97	  0.45	  5.18	  0.18	  4.13	  0.00	   nan	   nan	  4.13	  0.00
K:136	PRO	  5.28	  0.77	  4.83	  0.66	  5.89	  0.36	   nan	   nan	  5.89	  0.36
K:137	SER	  3.39	  0.29	  3.50	  0.28	  3.17	  0.16	  3.01	  0.00	  3.34	  0.00
K:144	GLY	  3.21	  0.33	  3.21	  0.33	   nan	   nan	   nan	   nan	   nan	   nan
K:145	THR	  3.45	  0.39	  3.66	  0.37	  3.17	  0.18	  2.93	  0.00	  3.29	  0.07
K:146	ALA	  4.75	  0.77	  4.96	  0.72	  3.93	  0.00	   nan	   nan	  3.93	  0.00
K:147	ALA	  5.77	  0.46	  5.74	  0.51	  5.88	  0.00	   nan	   nan	  5.88	  0.00
K:148	LEU	  8.93	  0.81	  8.87	  0.91	  8.98	  0.70	   nan	   nan	  8.98	  0.70
K:149	GLY	  9.80	  0.77	  9.80	  0.77	   nan	   nan	   nan	   nan	   nan	   nan
K:150	CYS	  9.92	  0.79	 10.36	  0.46	  9.05	  0.57	  8.48	  0.00	  9.62	  0.00
K:151	LEU	  9.52	  0.84	  9.50	  0.68	  9.54	  0.97	   nan	   nan	  9.54	  0.97
K:152	VAL	  8.91	  0.38	  8.95	  0.45	  8.86	  0.25	   nan	   nan	  8.86	  0.25
K:153	LYS	  5.63	  0.90	  6.42	  0.57	  4.99	  0.55	  4.21	  0.00	  5.19	  0.43
K:154	ASP	  4.85	  1.09	  5.85	  0.28	  3.85	  0.55	  3.43	  0.23	  4.27	  0.45
K:155	TYR	  7.12	  0.91	  6.84	  0.13	  7.25	  1.09	  5.11	  0.00	  7.56	  0.77
K:156	PHE	  5.39	  1.00	  6.55	  0.17	  4.73	  0.59	   nan	   nan	  4.73	  0.59
K:157	PRO	  6.10	  0.47	  6.44	  0.32	  5.64	  0.15	   nan	   nan	  5.64	  0.15
K:158	GLU	  4.32	  0.65	  4.96	  0.22	  3.80	  0.36	  3.41	  0.16	  4.06	  0.19
K:159	PRO	  4.38	  0.80	  4.96	  0.54	  3.61	  0.21	   nan	   nan	  3.61	  0.21
K:160	VAL	  5.14	  1.01	  4.48	  0.63	  6.03	  0.67	   nan	   nan	  6.03	  0.67
K:161	THR	  4.04	  0.68	  4.54	  0.38	  3.37	  0.32	  3.58	  0.00	  3.26	  0.35
K:162	VAL	  4.68	  0.91	  3.99	  0.41	  5.61	  0.43	   nan	   nan	  5.61	  0.43
K:163	SER	  4.29	  0.79	  4.69	  0.66	  3.50	  0.20	  3.70	  0.00	  3.30	  0.00
K:164	TRP	  7.00	  1.71	  5.34	  0.47	  7.66	  1.57	  6.59	  0.00	  7.78	  1.61
K:165	ASN	  4.13	  0.62	  4.45	  0.73	  3.80	  0.15	  3.71	  0.15	  3.90	  0.04
K:166	SER	  3.49	  0.54	  3.70	  0.55	  3.06	  0.06	  3.00	  0.00	  3.12	  0.00
K:167	GLY	  3.51	  0.30	  3.51	  0.30	   nan	   nan	   nan	   nan	   nan	   nan
K:168	ALA	  3.41	  0.29	  3.48	  0.29	  3.15	  0.00	   nan	   nan	  3.15	  0.00
K:169	LEU	  4.27	  0.35	  4.44	  0.20	  4.10	  0.38	   nan	   nan	  4.10	  0.38
K:170	THR	  3.66	  0.55	  3.99	  0.49	  3.20	  0.15	  3.11	  0.00	  3.25	  0.16
K:171	SER	  3.76	  0.52	  4.08	  0.30	  3.12	  0.07	  3.05	  0.00	  3.19	  0.00
K:172	GLY	  3.87	  0.49	  3.87	  0.49	   nan	   nan	   nan	   nan	   nan	   nan
K:173	VAL	  4.23	  0.41	  4.19	  0.47	  4.29	  0.31	   nan	   nan	  4.29	  0.31
K:174	HIS	  4.82	  0.56	  5.11	  0.47	  4.63	  0.53	  4.20	  0.03	  4.84	  0.54
K:175	THR	  3.74	  0.35	  3.94	  0.35	  3.48	  0.06	  3.51	  0.00	  3.46	  0.07
K:176	PHE	  6.21	  1.09	  4.84	  0.31	  6.99	  0.36	   nan	   nan	  6.99	  0.36
K:177	PRO	  3.96	  0.47	  4.22	  0.34	  3.62	  0.41	   nan	   nan	  3.62	  0.41
K:178	ALA	  4.14	  0.49	  4.04	  0.50	  4.57	  0.00	   nan	   nan	  4.57	  0.00
K:179	VAL	  4.53	  0.67	  4.66	  0.54	  4.36	  0.78	   nan	   nan	  4.36	  0.78
K:180	LEU	  3.75	  0.43	  3.93	  0.39	  3.57	  0.40	   nan	   nan	  3.57	  0.40
K:181	GLN	  4.67	  0.49	  4.72	  0.43	  4.63	  0.54	  4.27	  0.62	  4.87	  0.28
K:182	SER	  3.39	  0.36	  3.53	  0.35	  3.11	  0.09	  3.02	  0.00	  3.19	  0.00
K:183	SER	  3.55	  0.29	  3.66	  0.28	  3.33	  0.13	  3.46	  0.00	  3.20	  0.00
K:184	GLY	  3.67	  0.27	  3.67	  0.27	   nan	   nan	   nan	   nan	   nan	   nan
K:185	LEU	  5.02	  1.03	  5.83	  0.69	  4.20	  0.54	   nan	   nan	  4.20	  0.54
K:186	TYR	  5.76	  1.65	  7.65	  0.37	  4.81	  1.16	  3.02	  0.00	  5.07	  1.01
K:187	SER	  7.59	  0.42	  7.73	  0.46	  7.31	  0.02	  7.32	  0.00	  7.29	  0.00
K:188	LEU	  6.82	  1.54	  8.20	  0.62	  5.44	  0.76	   nan	   nan	  5.44	  0.76
K:189	SER	  8.56	  1.05	  7.92	  0.63	  9.85	  0.18	 10.02	  0.00	  9.67	  0.00
K:190	SER	  7.78	  1.20	  8.49	  0.74	  6.37	  0.51	  5.87	  0.00	  6.88	  0.00
K:191	VAL	  8.29	  0.88	  7.84	  0.68	  8.90	  0.74	   nan	   nan	  8.90	  0.74
K:192	VAL	  7.25	  0.62	  7.30	  0.51	  7.19	  0.73	   nan	   nan	  7.19	  0.73
K:193	THR	  4.38	  0.74	  4.60	  0.79	  4.08	  0.53	  3.40	  0.00	  4.42	  0.28
K:194	VAL	  4.71	  0.48	  4.60	  0.27	  4.85	  0.64	   nan	   nan	  4.85	  0.64
K:195	PRO	  4.16	  0.89	  4.83	  0.58	  3.27	  0.16	   nan	   nan	  3.27	  0.16
K:196	SER	  3.70	  0.55	  3.94	  0.53	  3.22	  0.01	  3.23	  0.00	  3.20	  0.00
K:197	SER	  3.46	  0.36	  3.67	  0.23	  3.04	  0.13	  2.90	  0.00	  3.17	  0.00
K:198	SER	  4.07	  0.71	  4.34	  0.72	  3.53	  0.21	  3.74	  0.00	  3.32	  0.00
K:199	LEU	  4.51	  0.64	  4.43	  0.42	  4.59	  0.79	   nan	   nan	  4.59	  0.79
K:200	GLY	  3.36	  0.30	  3.36	  0.30	   nan	   nan	   nan	   nan	   nan	   nan
K:201	THR	  3.45	  0.41	  3.67	  0.41	  3.15	  0.13	  3.14	  0.00	  3.15	  0.16
K:202	GLN	  3.89	  0.59	  4.32	  0.45	  3.54	  0.43	  3.08	  0.02	  3.84	  0.28
K:203	THR	  3.98	  0.51	  4.36	  0.24	  3.47	  0.27	  3.09	  0.00	  3.66	  0.05
K:204	TYR	  5.88	  0.78	  5.98	  0.30	  5.82	  0.93	  4.42	  0.00	  6.03	  0.81
K:205	ILE	  4.81	  1.19	  5.93	  0.50	  3.68	  0.29	   nan	   nan	  3.68	  0.29
K:206	CYS	  7.02	  0.69	  6.60	  0.36	  7.87	  0.30	  7.58	  0.00	  8.17	  0.00
K:207	ASN	  4.62	  0.68	  5.13	  0.61	  4.11	  0.20	  4.07	  0.24	  4.14	  0.15
K:208	VAL	  6.32	  1.15	  5.40	  0.52	  7.55	  0.31	   nan	   nan	  7.55	  0.31
K:209	ASN	  4.50	  1.03	  5.49	  0.32	  3.50	  0.21	  3.34	  0.15	  3.66	  0.11
K:210	HIS	  6.70	  0.57	  6.16	  0.43	  7.06	  0.31	  7.10	  0.22	  7.04	  0.34
K:211	LYS	  3.69	  0.54	  4.11	  0.52	  3.35	  0.23	  2.94	  0.00	  3.45	  0.12
K:212	PRO	  3.96	  0.36	  3.79	  0.38	  4.19	  0.13	   nan	   nan	  4.19	  0.13
K:213	SER	  3.88	  0.50	  3.83	  0.58	  3.97	  0.29	  4.26	  0.00	  3.68	  0.00
K:214	ASN	  3.55	  0.49	  3.86	  0.50	  3.23	  0.20	  3.03	  0.01	  3.43	  0.01
K:215	THR	  3.88	  0.44	  4.13	  0.41	  3.56	  0.22	  3.38	  0.00	  3.64	  0.21
K:216	LYS	  3.52	  0.38	  3.75	  0.39	  3.35	  0.26	  2.99	  0.00	  3.44	  0.21
K:217	VAL	  4.32	  0.69	  4.74	  0.60	  3.76	  0.30	   nan	   nan	  3.76	  0.30
K:218	ASP	  3.68	  0.39	  3.82	  0.39	  3.53	  0.34	  3.56	  0.48	  3.50	  0.09
K:219	LYS	  4.37	  0.68	  4.72	  0.32	  4.09	  0.77	  2.98	  0.00	  4.37	  0.59
K:220	LYS	  3.87	  0.48	  4.22	  0.37	  3.58	  0.35	  3.07	  0.00	  3.71	  0.27
K:221	VAL	  6.28	  0.59	  5.85	  0.40	  6.86	  0.17	   nan	   nan	  6.86	  0.17
K:222	GLU	  4.11	  0.72	  4.59	  0.55	  3.73	  0.59	  3.21	  0.17	  4.08	  0.51
K:223	PRO	  3.86	  0.55	  3.94	  0.57	  3.74	  0.51	   nan	   nan	  3.74	  0.51
K:224	LYS	  3.26	  0.19	  3.35	  0.23	  3.20	  0.10	  3.14	  0.00	  3.21	  0.10
